Division,BodyweightKg,WeightClassKg,Name,BirthDate,Team,Bench1Kg,Bench2Kg,Bench3Kg,Best3BenchKg,Deadlift1Kg,Deadlift2Kg,Deadlift3Kg,Best3DeadliftKg,TotalKg,Event,Equipment,Sex,Place
Tn 13-15,81.7,82.5,Agustin Lupidi,1997-09-16,Soria,70,77.5,-80,77.5,110,120,130,130,207.5,BD,Raw,M,1
Tn 13-15,87.3,90,Jonathan Quiroga,1998-03-13,LYM,60,70,-80,70,125,135,150,150,220,BD,Raw,M,1
Tn 16-17,94.3,100,Maximiliano Maidana,1995-10-22,Soria,80,90,-97.5,90,,,,,90,B,Raw,M,1
Tn 18-19,86.7,90,Franco Peralta,1994-08-05,Olympia,90,95,100,100,190,-200,220,220,320,BD,Raw,M,1
Tn 18-19,87.5,90,Pablo Perin,1994-07-04,Soria,105,115,120,120,175,190,200,200,320,BD,Raw,M,2
Jun,73.4,75,Santiago Minciacca,1990-01-22,Soria,130,140,-150,140,190,210,-225,210,350,BD,Raw,M,1
Jun,69.6,75,Micael Rosso,1990-01-30,Soria,85,92.5,-100,92.5,170,195,225,225,317.5,BD,Raw,M,2
Jun,93.8,100,Fernando Godoy,1990-06-11,Soria,110,-115,-115,110,140,155,170,170,280,BD,Raw,M,1
Jun,85.2,90,Federico Peralta,1990-03-18,Soria,115,122,127.5,127.5,185,195,-200,195,322.5,BD,Raw,M,1
Jun,102,110,Franco Carreras,1993-01-08,Olympia,120,-125,125,125,190,210,220,220,345,BD,Raw,M,1
Open,71.5,75,Cristian Albornoz,1980-10-18,Elite,110,115,117.5,117.5,,,,,117.5,B,Raw,M,1
Open,74.9,75,Guillermo Dutto,1985-02-02,Olympus,70,80,-90,80,,,,,80,B,Raw,M,2
Open,74.9,75,Gabriel Pizzo,1987-10-27,Sport Gym,105,112.5,115,115,130,-145,145,145,260,BD,Raw,M,1
Open,83.1,90,Leonardo Casale,1986-11-11,Soria,135,-145,-145,135,170,180,190,190,325,BD,Raw,M,1
Open,88.4,90,Pablo Correa,1986-04-15,Olympia,90,100,105,105,170,180,200,200,305,BD,Raw,M,2
Open,95,100,Mario Reyna,1978-11-25,LYM,130,140,145,145,220,230,-240,230,375,BD,Raw,M,1
Open,101,110,Agustin Miravalles,1980-10-24,Sport Gym,-147.5,-147.5,147.5,147.5,150,,,150,297.5,BD,Raw,M,1
Open,105,110,Juan Manavella,1977-11-15,Soria,145,155,-165,155,240,255,270,270,425,BD,Raw,M,1
SubM,105,110,Juan Manavella,1977-11-15,Soria,145,155,-165,155,240,255,270,270,425,BD,Raw,M,1
Open,102.5,110,Milton Ruiz,1985-03-02,Queen,110,120,-125,120,200,210,215,215,335,BD,Raw,M,1
SubM,75,75,Guillermo Muñoz,1973-08-27,Olympia,100,105,-110,105,160,180,200,200,305,BD,Raw,M,1
ParaOl,88,90,Lucas Basualdo,1981-02-20,Soria,117.5,122.5,125,125,,,,,125,B,Raw,M,1
M 40-44,66,67.5,Mario Bianchi,1969-09-05,Soria,115,117.5,-120,117.5,,,,,117.5,B,Raw,M,1
M 45-49,67.4,67.5,Aldo Pirantonelli,1966-06-07,Soria,85,90,-100,90,175,185,-192.5,185,275,BD,Raw,M,1
M 45-49,105.2,110,Antonio Liendo,1966-04-22,Olympus,115,120,-130,120,180,190,200,200,320,BD,Raw,M,1
M 60-64,92,100,Júlio Chavez,1952-08-19,Chavez,80,85,-90,85,180,200,,200,285,BD,Raw,M,1
