Division,WeightClassKg,Place,Name,Team,BodyweightKg,Best3SquatKg,Best3BenchKg,Best3DeadliftKg,TotalKg,Equipment,Event,Sex
Boys,51.71,1,Uriel Rodriguez,Crawford,50.35,151.95,88.45,158.76,399.16,Single-ply,SBD,M
Boys,51.71,2,Isaack Santillan,Clifton,51.17,108.86,72.57,124.74,306.17,Single-ply,SBD,M
Boys,51.71,3,Diego Rivera,Mexia,51.71,111.13,63.5,106.59,281.23,Single-ply,SBD,M
Boys,51.71,4,Bryan McNeil,Rogers,44.45,92.99,49.9,111.13,254.01,Single-ply,SBD,M
Boys,51.71,5,Corbin Donoho,Corsicana Mildred,50.17,90.72,52.16,108.86,251.74,Single-ply,SBD,M
Boys,51.71,6,Ryland Holt,Whitney,51.26,74.84,36.29,74.84,185.97,Single-ply,SBD,M
Boys,55.79,1,Cody Villa,Crawford,55.34,161.03,108.86,217.72,487.61,Single-ply,SBD,M
Boys,55.79,2,Rodrigo Hernandez,Hillsboro,54.43,124.74,79.38,142.88,347,Single-ply,SBD,M
Boys,55.79,3,Alex Amador,Rosebud-Lott,55.25,117.93,77.11,145.15,340.19,Single-ply,SBD,M
Boys,55.79,4,Juan Sanchez,Mexia,53.34,124.74,63.5,124.74,312.98,Single-ply,SBD,M
Boys,55.79,5,Robby Brewer,Clifton,54.7,129.27,74.84,106.59,310.71,Single-ply,SBD,M
Boys,55.79,6,Osvaldo Antunez,Hillsboro,55.16,115.67,79.38,115.67,310.71,Single-ply,SBD,M
Boys,55.79,7,Ricardo Dela Rosa,Waco La Vega,52.8,113.4,58.97,136.08,308.44,Single-ply,SBD,M
Boys,55.79,8,Alec Bailey,Mexia,54.34,117.93,61.23,117.93,297.1,Single-ply,SBD,M
Boys,55.79,9,Jordan Olsen,West,54.88,113.4,49.9,104.33,267.62,Single-ply,SBD,M
Boys,55.79,10,Dalton Stith,Moody,54.25,90.72,43.09,90.72,224.53,Single-ply,SBD,M
Boys,55.79,11,Jonathan Whalen,Whitney,53.07,79.38,40.82,90.72,210.92,Single-ply,SBD,M
Boys,55.79,DQ,TJ Renfro,Thrall,54.34,,68.04,108.86,,Single-ply,SBD,M
Boys,59.87,1,Michael Bartlett,Robinson,58.33,179.17,81.65,170.1,430.91,Single-ply,SBD,M
Boys,59.87,2,Bobby Hanson,Axtell,58.6,131.54,81.65,158.76,371.95,Single-ply,SBD,M
Boys,59.87,3,Emiliano Mar,Clifton,58.88,140.61,79.38,151.95,371.95,Single-ply,SBD,M
Boys,59.87,4,Sam Shorts,Whitney,59.42,124.74,74.84,117.93,317.51,Single-ply,SBD,M
Boys,59.87,5,Jose Hinojosa,Moody,57.79,99.79,70.31,122.47,292.57,Single-ply,SBD,M
Boys,59.87,6,Josh Watson,Marlin,57.7,72.57,56.7,83.91,213.19,Single-ply,SBD,M
Boys,59.87,DQ,Ben Brown,Marlin,57.06,88.45,54.43,,,Single-ply,SBD,M
Boys,59.87,DQ,Callahan Sherrod,Waco Reicher Catholic,58.6,,,,,Single-ply,SBD,M
Boys,67.13,1,Cory Sauer,Robinson,66.13,190.51,124.74,181.44,496.68,Single-ply,SBD,M
Boys,67.13,2,Jessie Pena,Waco La Vega,64.14,154.22,81.65,181.44,417.3,Single-ply,SBD,M
Boys,67.13,3,Joseph Bryant,Waco La Vega,64.5,142.88,86.18,174.63,403.7,Single-ply,SBD,M
Boys,67.13,4,Jonathon Erickson,Corsicana Mildred,63.41,133.81,79.38,156.49,369.68,Single-ply,SBD,M
Boys,67.13,5,Dylan Walker,Moody,66.68,145.15,81.65,140.61,367.41,Single-ply,SBD,M
Boys,67.13,6,Oscar Manuel,Hillsboro,65.5,122.47,83.91,151.95,358.34,Single-ply,SBD,M
Boys,67.13,7,Brady Arnett,West,61.78,142.88,83.91,124.74,351.53,Single-ply,SBD,M
Boys,67.13,8,Colton Haven,Corsicana Mildred,64.86,124.74,77.11,142.88,344.73,Single-ply,SBD,M
Boys,67.13,9,Blake Crain,Robinson,65.5,136.08,58.97,147.42,342.46,Single-ply,SBD,M
Boys,67.13,10,Dustin Richter,Bosqueville,66.95,136.08,63.5,138.35,337.93,Single-ply,SBD,M
Boys,67.13,11,Zac Johle,Thrall,64.41,129.27,83.91,120.2,333.39,Single-ply,SBD,M
Boys,67.13,12,Armando Castaneda,Hillsboro,65.5,102.06,81.65,142.88,326.59,Single-ply,SBD,M
Boys,67.13,13,Dalton Baker,West,62.69,124.74,74.84,124.74,324.32,Single-ply,SBD,M
Boys,67.13,14,Patrick Saucedo,Bosqueville,65.32,122.47,72.57,122.47,317.51,Single-ply,SBD,M
Boys,67.13,15,Josh Rios,Moody,66.13,117.93,70.31,129.27,317.51,Single-ply,SBD,M
Boys,67.13,DQ,Drew Hargrove,Moody,60.15,68.04,,81.65,,Single-ply,SBD,M
Boys,67.13,DQ,Decovan Echols,Mexia,67.13,158.76,,158.76,,Single-ply,SBD,M
Boys,67.13,DQ,Trey Minefee,Corsicana Mildred,66.22,154.22,104.33,,,Single-ply,SBD,M
Boys,67.13,DQ,Elliot Worsham,Italy,65.95,136.08,,122.47,,Single-ply,SBD,M
Boys,67.13,DQ,Keinan Henry,Marlin,64.41,,65.77,129.27,,Single-ply,SBD,M
Boys,67.13,DQ,Christian Bares,Whitney,64.05,,,,,Single-ply,SBD,M
Boys,67.13,DQ,Ely Ferris,Waco Reicher Catholic,66.32,,,,,Single-ply,SBD,M
Boys,74.84,1,Devyn Hebbe,Axtell,73.66,238.14,106.59,226.8,571.53,Single-ply,SBD,M
Boys,74.84,2,Roy Ward,Waco Reicher Catholic,73.21,238.14,131.54,192.78,562.45,Single-ply,SBD,M
Boys,74.84,3,Eddy Jaimes,Riesel,70.58,219.99,129.27,174.63,523.9,Single-ply,SBD,M
Boys,74.84,4,Alec Behrendt,Thrall,74.12,199.58,127.01,190.51,517.1,Single-ply,SBD,M
Boys,74.84,5,Darius Dorsey,Mexia,72.67,183.7,120.2,188.24,492.15,Single-ply,SBD,M
Boys,74.84,6,Camry Garner,Hillsboro,73.94,181.44,117.93,188.24,487.61,Single-ply,SBD,M
Boys,74.84,7,Barclay Brunson,Crawford,72.67,185.97,117.93,174.63,478.54,Single-ply,SBD,M
Boys,74.84,8,Daniel Chavez,Clifton,69.49,183.7,106.59,183.7,474,Single-ply,SBD,M
Boys,82.1,9,Alex Smith,Bosqueville,75.02,176.9,92.99,170.1,439.98,Single-ply,SBD,M
Boys,74.84,10,Angel Torres,Whitney,68.95,149.69,106.59,163.29,419.57,Single-ply,SBD,M
Boys,74.84,11,Cj Smith,Crawford,71.03,156.49,102.06,161.03,419.57,Single-ply,SBD,M
Boys,82.1,12,Jarice Strickland,Marlin,74.93,142.88,113.4,158.76,415.04,Single-ply,SBD,M
Boys,82.1,13,Quinn Dunn,Rosebud-Lott,74.93,154.22,83.91,172.37,410.5,Single-ply,SBD,M
Boys,74.84,14,Garrett Randolph,Troy,69.04,154.22,88.45,158.76,401.43,Single-ply,SBD,M
Boys,74.84,15,Eric Salazar,West,74.57,138.35,111.13,149.69,399.16,Single-ply,SBD,M
Boys,74.84,16,Trey Whitlock,Valley Mills,69.4,145.15,79.38,170.1,394.63,Single-ply,SBD,M
Boys,74.84,17,Luke Ratliff,Waco Reicher Catholic,74.21,140.61,102.06,147.42,390.09,Single-ply,SBD,M
Boys,74.84,18,Blake Brewer,Italy,70.13,142.88,86.18,158.76,387.82,Single-ply,SBD,M
Boys,74.84,19,Evan Bodnar,Moody,72.94,145.15,72.57,170.1,387.82,Single-ply,SBD,M
Boys,74.84,20,John Aynesworth,Waco Reicher Catholic,72.3,136.08,97.52,151.95,385.55,Single-ply,SBD,M
Boys,74.84,21,Thomas Wright,Moody,72.94,136.08,83.91,161.03,381.02,Single-ply,SBD,M
Boys,74.84,22,Cortney Young #2,Rogers,68.13,142.88,83.91,138.35,365.14,Single-ply,SBD,M
Boys,74.84,23,Junior Stith,Moody,72.03,136.08,86.18,142.88,365.14,Single-ply,SBD,M
Boys,74.84,24,Matt Wright,Moody,68.95,120.2,79.38,163.29,362.87,Single-ply,SBD,M
Boys,74.84,25,Colton Ramey,Crawford,72.57,136.08,81.65,142.88,360.61,Single-ply,SBD,M
Boys,74.84,26,Clayton Wilson #2,West,69.76,151.95,70.31,127.01,349.27,Single-ply,SBD,M
Boys,74.84,27,Paeton McFarlin,West,72.85,129.27,86.18,122.47,337.93,Single-ply,SBD,M
Boys,74.84,28,Mariano Perez,West,74.75,124.74,74.84,138.35,337.93,Single-ply,SBD,M
Boys,74.84,29,Daycairios Brown,Marlin,68.58,106.59,81.65,142.88,331.12,Single-ply,SBD,M
Boys,74.84,30,Dillon Allen,Whitney,73.21,124.74,70.31,129.27,324.32,Single-ply,SBD,M
Boys,74.84,31,Cody Goodwin,Moody,68.76,106.59,77.11,113.4,297.1,Single-ply,SBD,M
Boys,74.84,32,Manuel Suarez,Rosebud-Lott,68.76,83.91,70.31,136.08,290.3,Single-ply,SBD,M
Boys,74.84,33,Creese Goodwin,Moody,69.9,102.06,74.84,102.06,278.96,Single-ply,SBD,M
Boys,74.84,34,Jimmie Quinn,Marlin,67.68,106.59,58.97,102.06,267.62,Single-ply,SBD,M
Boys,74.84,DQ,Dustin Thompson,Corsicana Mildred,68.76,111.13,,,,Single-ply,SBD,M
Boys,74.84,DQ,Jamie Rodriguez,Waco La Vega,69.94,181.44,,,,Single-ply,SBD,M
Boys,82.1,1,Marco Castro,Waco Reicher Catholic,79.29,240.4,129.27,238.14,607.81,Single-ply,SBD,M
Boys,82.1,2,Allen Scott,Waco Reicher Catholic,77.66,222.26,145.15,235.87,603.28,Single-ply,SBD,M
Boys,82.1,3,Walker Allen,China Spring,80.2,179.17,142.88,192.78,514.83,Single-ply,SBD,M
Boys,82.1,4,Brett Ramsey,Moody,80.47,195.04,102.06,195.04,492.15,Single-ply,SBD,M
Boys,82.1,5,Malcolm Johnson,Rosebud-Lott,77.02,181.44,136.08,172.37,489.88,Single-ply,SBD,M
Boys,82.1,6,Larry Reid,Robinson,80.2,172.37,117.93,185.97,476.27,Single-ply,SBD,M
Boys,82.1,7,Jose Rodriquez,Valley Mills,79.74,181.44,95.25,188.24,464.93,Single-ply,SBD,M
Boys,82.1,8,Aaron Harralson,West,80.56,183.7,117.93,158.76,460.4,Single-ply,SBD,M
Boys,82.1,9,Kyle Fortenberry,Italy,79.92,181.44,113.4,163.29,458.13,Single-ply,SBD,M
Boys,82.1,10,Randall Neal,Mexia,82.1,172.37,102.06,176.9,451.32,Single-ply,SBD,M
Boys,82.1,11,Josh Lucas,Clifton,77.38,163.29,97.52,181.44,442.25,Single-ply,SBD,M
Boys,82.1,12,Tyler Chandler,Thrall,81.1,154.22,106.59,181.44,442.25,Single-ply,SBD,M
Boys,82.1,13,Brian Leal,Whitney,81.47,151.95,92.99,170.1,415.04,Single-ply,SBD,M
Boys,82.1,14,Hernan Arroyo,Moody,78.38,136.08,83.91,158.76,378.75,Single-ply,SBD,M
Boys,82.1,15,Jordan Tatro,Moody,81.28,136.08,79.38,154.22,369.68,Single-ply,SBD,M
Boys,82.1,16,Morgan Marshall,Crawford,80.29,129.27,90.72,142.88,362.87,Single-ply,SBD,M
Boys,82.1,17,Chris Jackson,Hillsboro,78.93,111.13,86.18,151.95,349.27,Single-ply,SBD,M
Boys,82.1,18,Chris Henson,Moody,81.47,131.54,86.18,131.54,349.27,Single-ply,SBD,M
Boys,82.1,19,Broderick Thomas,Marlin,79.38,124.74,,,124.74,Single-ply,S,M
Boys,82.1,DQ,Alberto Castillo,Mexia,79.02,,,,,Single-ply,S,M
Boys,89.81,1,Tanner Coone,Axtell,86.91,222.26,142.88,226.8,591.94,Single-ply,SBD,M
Boys,89.81,2,Antonio Vargas,China Spring,87.09,199.58,149.69,231.33,580.6,Single-ply,SBD,M
Boys,89.81,3,Koltan Hampton,China Spring,86.55,210.92,133.81,190.51,535.24,Single-ply,SBD,M
Boys,89.81,4,Dillon Van Zandt,Crawford,86.36,199.58,113.4,199.58,512.56,Single-ply,SBD,M
Boys,89.81,5,James Brown,China Spring,89.81,204.12,117.93,188.24,510.29,Single-ply,SBD,M
Boys,89.81,6,Jordan Larance,Clifton,86.91,204.12,113.4,188.24,505.76,Single-ply,SBD,M
Boys,89.81,7,Ethan Lopez,Waco La Vega,88.45,215.46,104.33,185.97,505.76,Single-ply,SBD,M
Boys,89.81,8,Dustin Brown,Waco La Vega,89.63,188.24,124.74,185.97,498.95,Single-ply,SBD,M
Boys,89.81,9,Logan Willenborg,West,83.19,183.7,115.67,195.04,494.42,Single-ply,SBD,M
Boys,89.81,10,Jacob Seggern,Thrall,89.81,165.56,108.86,195.04,469.47,Single-ply,SBD,M
Boys,99.79,11,Trey Brown,Robinson,89.99,174.63,113.4,181.44,469.47,Single-ply,SBD,M
Boys,89.81,12,Timothy Thomas,Whitney,87.27,181.44,92.99,181.44,455.86,Single-ply,SBD,M
Boys,89.81,13,Shane Bruno,Clifton,84.64,181.44,113.4,158.76,453.59,Single-ply,SBD,M
Boys,99.79,14,Will Worrell,Crawford,89.99,163.29,102.06,158.76,424.11,Single-ply,SBD,M
Boys,89.81,15,Daniel Fraire,West,85.64,174.63,99.79,142.88,417.3,Single-ply,SBD,M
Boys,89.81,16,Robert Pitman,Thrall,89.72,163.29,92.99,161.03,417.3,Single-ply,SBD,M
Boys,89.81,17,Justin Horn #1,Corsicana Mildred,88.45,158.76,88.45,165.56,412.77,Single-ply,SBD,M
Boys,89.81,18,David Angel,Valley Mills,82.37,145.15,108.86,145.15,399.16,Single-ply,SBD,M
Boys,89.81,19,Kase Reigan,Waco Reicher Catholic,89.45,142.88,88.45,145.15,376.48,Single-ply,SBD,M
Boys,89.81,20,Eathan Johnson,Rosebud-Lott,83.91,113.4,86.18,154.22,353.8,Single-ply,SBD,M
Boys,89.81,21,Marshall Jordan,Rosebud-Lott,88.09,133.81,90.72,120.2,344.73,Single-ply,SBD,M
Boys,89.81,22,Matt Sparks,West,86.55,129.27,74.84,127.01,331.12,Single-ply,SBD,M
Boys,89.81,23,Rainey Guthrie,Whitney,88.45,113.4,61.23,127.01,301.64,Single-ply,SBD,M
Boys,99.79,1,Taylor Hull,China Spring,97.89,272.16,158.76,226.8,657.71,Single-ply,SBD,M
Boys,99.79,2,Brandon Bruce,Rogers,93.26,244.94,147.42,231.33,623.69,Single-ply,SBD,M
Boys,99.79,3,Eduardo Cruz,Hillsboro,95.71,240.4,117.93,210.92,569.26,Single-ply,SBD,M
Boys,99.79,4,Erick Marton,Axtell,96.89,215.46,111.13,217.72,544.31,Single-ply,SBD,M
Boys,99.79,5,Ricky Zamora,Corsicana Mildred,97.98,195.04,108.86,197.31,501.22,Single-ply,SBD,M
Boys,99.79,6,Rahi Patel,Mexia,93.17,181.44,115.67,192.78,489.88,Single-ply,SBD,M
Boys,99.79,7,Seth Greensage,Marlin,96.52,172.37,131.54,183.7,487.61,Single-ply,SBD,M
Boys,99.79,8,Clayton Carberry,Robinson,94.71,197.31,90.72,197.31,485.34,Single-ply,SBD,M
Boys,99.79,9,Jacob Dorton,Robinson,91.99,172.37,106.59,190.51,469.47,Single-ply,SBD,M
Boys,99.79,10,Zach Cobb,China Spring,95.89,161.03,140.61,161.03,462.66,Single-ply,SBD,M
Boys,99.79,11,Alex Falcon,Troy,98.25,176.9,111.13,174.63,462.66,Single-ply,SBD,M
Boys,99.79,12,Zach Solano,Rogers,94.53,181.44,102.06,142.88,426.38,Single-ply,SBD,M
Boys,99.79,13,Dustin Stewart,Crawford,99.7,117.93,79.38,136.08,333.39,Single-ply,SBD,M
Boys,99.79,14,Zach Karnowski,Moody,91.26,111.13,83.91,131.54,326.59,Single-ply,SBD,M
Boys,99.79,DQ,Colton Schmedhorst,Riesel,91.17,115.67,,120.2,,Single-ply,SBD,M
Boys,99.79,DQ,Emanuel Chavez,Valley Mills,99.52,151.95,72.57,,,Single-ply,SBD,M
Boys,99.79,DQ,Corey Kemp,Waco La Vega,95.16,215.46,,,,Single-ply,SBD,M
Boys,109.77,1,Quavious Gamble,Mexia,105.69,258.55,154.22,249.48,662.24,Single-ply,SBD,M
Boys,109.77,2,Jason Harris,West,106.68,258.55,136.08,226.8,621.42,Single-ply,SBD,M
Boys,109.77,3,Colten Heine,Thrall,102.51,204.12,142.88,217.72,564.72,Single-ply,SBD,M
Boys,109.77,4,Arkeil Winn,Mexia,101.24,210.92,115.67,210.92,537.51,Single-ply,SBD,M
Boys,109.77,5,Steven Field,China Spring,104.78,181.44,138.35,181.44,501.22,Single-ply,SBD,M
Boys,109.77,6,Timothy Collums,Corsicana Mildred,106.14,158.76,92.99,156.49,408.23,Single-ply,SBD,M
Boys,109.77,7,Logan Begesse,China Spring,102.06,154.22,102.06,147.42,403.7,Single-ply,SBD,M
Boys,109.77,8,Tanner Sparks,West,103.33,145.15,97.52,145.15,387.82,Single-ply,SBD,M
Boys,109.77,9,Dalton Zander,Bosqueville,100.61,131.54,72.57,136.08,340.19,Single-ply,SBD,M
Boys,124.74,1,Byron Bryant,Waco La Vega,122.83,272.16,167.83,242.67,682.66,Single-ply,SBD,M
Boys,124.74,2,Jordan Rivera,Waco La Vega,116.12,247.21,163.29,244.94,655.44,Single-ply,SBD,M
Boys,124.74,3,Andrew Escobedo,Waco La Vega,119.93,240.4,133.81,190.51,564.72,Single-ply,SBD,M
Boys,124.74,4,Ty Harris,China Spring,119.29,188.24,136.08,183.7,508.02,Single-ply,SBD,M
Boys,124.74,5,Jeran Gallimore,Robinson,115.03,204.12,129.27,170.1,503.49,Single-ply,SBD,M
Boys,124.74,6,Derrick Oliver,Whitney,110.59,181.44,104.33,181.44,467.2,Single-ply,SBD,M
Boys,124.74,7,Kellan Anderson,Rogers,111.49,140.61,79.38,165.56,385.55,Single-ply,SBD,M
Boys,124.74+,1,Gustavo Bonilla,Robinson,129.27,276.69,154.22,258.55,689.46,Single-ply,SBD,M
Boys,124.74+,2,Noah Stebens,China Spring,130.54,224.53,151.95,199.58,576.06,Single-ply,SBD,M
Boys,124.74+,3,Traylon Berry,Waco La Vega,135.9,244.94,127.01,199.58,571.53,Single-ply,SBD,M
Boys,124.74+,4,Tanner Smith,Robinson,135.71,204.12,136.08,208.65,548.85,Single-ply,SBD,M
Boys,124.74+,5,TreDereck Anglin,Mexia,148.87,217.72,115.67,215.46,548.85,Single-ply,SBD,M
Boys,124.74+,6,Bailey Blackman,China Spring,134.72,213.19,145.15,185.97,544.31,Single-ply,SBD,M
Boys,124.74+,7,Chastain Stautz,Thrall,126.37,163.29,108.86,167.83,439.98,Single-ply,SBD,M
Boys,124.74+,8,Ryan Alexander,Riesel,137.26,163.29,99.79,176.9,439.98,Single-ply,SBD,M
Boys,124.74+,9,Daniel Campo,Marlin,128.09,142.88,117.93,174.63,435.45,Single-ply,SBD,M
Boys,,NS,Ish Brooks,Marlin,,,,,,Single-ply,SBD,M
Boys,,NS,Luke Steele,Hillsboro,,,,,,Single-ply,SBD,M
Boys,,NS,Ishmael Ramirez,Hillsboro,,,,,,Single-ply,SBD,M
Boys,,NS,Eduardo Ortiz,Hillsboro,,,,,,Single-ply,SBD,M
Boys,,NS,Jason Marroquin,Axtell,,,,,,Single-ply,SBD,M
Boys,,NS,Jacob Mata,Clifton,,,,,,Single-ply,SBD,M
Boys,,NS,Justin O'Neal,Clifton,,,,,,Single-ply,SBD,M
Boys,,NS,Taylor Bradley,Clifton,,,,,,Single-ply,SBD,M
Boys,,NS,Matthew Martinez,Moody,,,,,,Single-ply,SBD,M
Boys,,NS,Sergio Gonzales,Troy,,,,,,Single-ply,SBD,M
Boys,,NS,Levi Libhart,Rogers,,,,,,Single-ply,SBD,M
Boys,,NS,Vincent Wilson,Rogers,,,,,,Single-ply,SBD,M
Boys,,NS,Steven Dees,Rogers,,,,,,Single-ply,SBD,M
Boys,,NS,Justin Wardlow,Whitney,,,,,,Single-ply,SBD,M
