Name,Sex,Event,Equipment,Team,BodyweightKg,WeightClassKg,Division,Squat1Kg,Squat2Kg,Squat3Kg,Squat4Kg,Best3SquatKg,Bench1Kg,Bench2Kg,Bench3Kg,Bench4Kg,Best3BenchKg,Deadlift1Kg,Deadlift2Kg,Deadlift3Kg,Deadlift4Kg,Best3DeadliftKg,TotalKg,Place
Andrea Pauli,F,B,Multi-ply,KSC FRAUENAU,66.7,67.5,Open,,,,,,95,-100,100,,100,,,,,,100,1
Viola Kongehl,F,B,Multi-ply,SV EINHEIT GENTHIN,71.7,75,M 45-49,,,,,,85,92.5,-100,,92.5,,,,,,92.5,1
Anita Riedel,F,B,Multi-ply,KSC FRAUENAU,95.1,90+,M 50-54,,,,,,65,72.5,75.5,,75.5,,,,,,75.5,1
Leif Johannsen,M,B,Multi-ply,TSV KROPP,100.5,110,T 18-19,,,,,,100,105,-110,,105,,,,,,105,1
Ron Krieg,M,B,Multi-ply,KÖTHENER SV,136.7,140,T 18-19,,,,,,-180,190,200,,200,,,,,,200,1
Reno Karkuschke,M,B,Multi-ply,TSV KROPP,66.9,67.5,Open,,,,,,85,-92.5,92.5,,92.5,,,,,,92.5,1
Gerrit Scheel,M,B,Multi-ply,TSV FRIEDRICHSBERG,81.8,82.5,Open,,,,,,200,210,-215,,210,,,,,,210,1
Robin von Zweydorff,M,B,Multi-ply,,98.3,100,Open,,,,,,260,270,-280,,270,,,,,,270,1
Christoph Scheel,M,B,Multi-ply,TSV FRIEDRICHSBERG,97,100,Open,,,,,,-250,-250,250,,250,,,,,,250,2
Martin Kries,M,B,Multi-ply,,103.8,110,Open,,,,,,280,290,-300,,290,,,,,,290,1
Henning Tiedje,M,B,Multi-ply,TAV BRÜEL,104.1,110,Open,,,,,,237.5,250,260,,260,,,,,,260,2
Matthias Joecks,M,B,Multi-ply,TSV KROPP,118.5,125,Open,,,,,,295,-307.5,-307.5,,295,,,,,,295,1
Sirko Petermann,M,B,Multi-ply,TUSG MITTELSACHSEN,120.8,125,Open,,,,,,255,-262.5,-265,,255,,,,,,255,2
Andreas Senger,M,B,Multi-ply,SV EINHEIT GENTHIN,114.2,125,Open,,,,,,155,-165,170,,170,,,,,,170,3
Daniel Kaufmann,M,B,Multi-ply,1. STENDALER KSV,88.2,90,M 40-44,,,,,,195,-205,-205,,195,,,,,,195,1
Reno Karkusche,M,B,Multi-ply,TSV KROPP,66.9,67.5,M 45-49,,,,,,85,-92.5,-92.5,,85,,,,,,85,1
Steffen Reisbach,M,B,Multi-ply,KÖTHENER SV,89.5,90,M 45-49,,,,,,130,-165,165,,165,,,,,,165,1
Kai-Uwe Werner,M,B,Multi-ply,,118.4,125,M 45-49,,,,,,267.5,275,-280,,275,,,,,,275,1
Helmut Sontheimer,M,B,Multi-ply,KSC FRAUENAU,89.4,90,M 50-54,,,,,,170,-177.5,180,,180,,,,,,180,1
Krystian Slosarek,M,B,Multi-ply,TODTGLÜSINGER SV,116.7,125,M 55-59,,,,,,190,200,-210,,200,,,,,,200,1
Lutz Dürre,M,B,Multi-ply,SV EINHEIT GENTHIN,127.8,140,M 55-59,,,,,,150,-160,,,150,,,,,,150,1
Thomas Wagner,M,B,Multi-ply,,82.4,82.5,M 60-64,,,,,,115,120,127.5,,127.5,,,,,,127.5,1
Fred Marienfeldt,M,B,Multi-ply,POWERTEAM LANGENDAMM,87.4,90,M 65-69,,,,,,162.5,-170,170,,170,,,,,,170,1
Armin Bunzel,M,B,Multi-ply,SV EINHEIT GENTHIN,98.4,100,M 65-69,,,,,,105,115,120,,120,,,,,,120,1
Ulrich Vetter,M,B,Multi-ply,POWERLIFTING LAUCHHAMMER,103.6,110,M 65-69,,,,,,170,175,180,,180,,,,,,180,1
Roland Götz,M,B,Multi-ply,FAIR FITNESS AALEN,79.7,82.5,M 70-74,,,,,,100,107.5,110,,110,,,,,,110,1
Konrad Merta,M,B,Multi-ply,TODTGLÜSINGER SV,88.4,90,M 75-79,,,,,,105,-120,,,105,,,,,,105,1
Sabrina Pauli,F,B,Raw,KSCFRAUENAU,64.4,67.5,T 13-15,,,,,,47.5,50,52.5,-55,52.5,,,,,,52.5,1
Ivonne Ludwig,F,B,Raw,FORTSCHRITT EIBAU,56.4,60,Open,,,,,,-55,55,-57.5,,55,,,,,,55,1
Nicole Kegeler,F,B,Raw,KUF HENNINGSDORF,65.6,67.5,Open,,,,,,80,82.5,85,,85,,,,,,85,1
Maria Gantke,F,B,Raw,XXXL DIE SCHMIEDE,63.9,67.5,Open,,,,,,60,65,-70,,65,,,,,,65,2
Sandra Tesmer,F,B,Raw,TSV KROPP,69.9,75,M 40-44,,,,,,47.5,52.5,-55,,52.5,,,,,,52.5,1
Sigrid Sack,F,B,Raw,SV AMENDIGEN,55.4,56,M 65-69,,,,,,52.5,55,-57.5,,55,,,,,,55,1
Ingrid Cedel,F,B,Raw,LOK STENDAL,64.2,67.5,M 65-69,,,,,,47.5,50,-52.5,,50,,,,,,50,1
Max Glok,M,B,Raw,,83.2,90,T 13-15,,,,,,92.5,97.5,100,,100,,,,,,100,1
Max Enin,M,B,Raw,,97.9,100,T 13-15,,,,,,115.5,125,131,140,131,,,,,,131,1
Fatih Kedilioglu,M,B,Raw,KSCFRAUENAU,80.6,82.5,T 16-17,,,,,,-100,100,102.5,,102.5,,,,,,102.5,1
Jannes Bleßmann,M,B,Raw,TSV KROPP,82.2,82.5,T 16-17,,,,,,95,-102.5,-102.5,,95,,,,,,95,2
Eric Benik,M,B,Raw,XXXL DIE SCHMIEDE,86.4,90,T 16-17,,,,,,122.5,130,-132.5,,130,,,,,,130,1
Nils-Mario Biermordt,M,B,Raw,,99.3,100,T 16-17,,,,,,135,140,142.5,,142.5,,,,,,142.5,1
Paul Kogg,M,B,Raw,,99.1,100,T 16-17,,,,,,110,120,-130,,120,,,,,,120,2
Dennis Glok,M,B,Raw,,82.5,82.5,T 18-19,,,,,,100,105,110,,110,,,,,,110,1
Leif Johannsen,M,B,Raw,TSV KROPP,99.2,100,T 18-19,,,,,,80,90,,,90,,,,,,90,1
Tom Weltzer,M,B,Raw,TSV KROPP,102.9,110,T 18-19,,,,,,125,132.5,-137.5,,132.5,,,,,,132.5,1
Josef Treml,M,B,Raw,SV BAYRISCH EISENSTEIN,123.1,125,T 18-19,,,,,,85,92.5,-100,,92.5,,,,,,92.5,1
Ron Krieg,M,B,Raw,KGTHENER SV,136.7,140,T 18-19,,,,,,165,-175,175,,175,,,,,,175,1
Jan Friedrich,M,B,Raw,POWERLIFTING LAUCHHAMMER,66.4,67.5,Jun,,,,,,115,120,125,-127.5,125,,,,,,125,1
Atdhe Osmani,M,B,Raw,KRAFTWERK NÜRTINGEN,74.1,75,Jun,,,,,,-130,130,132.5,,132.5,,,,,,132.5,1
Alexander Wartig,M,B,Raw,1. STENDALER KSV,76,82.5,Jun,,,,,,125,132.5,137.5,,137.5,,,,,,137.5,1
Valentin Rohm,M,B,Raw,,84.1,90,Jun,,,,,,140,150,-157.5,,150,,,,,,150,1
Stefan Schultheiß,M,B,Raw,,91.1,100,Jun,,,,,,150,160,-170,,160,,,,,,160,1
Marcel Kleuß,M,B,Raw,1. STENDALER KSV,90.3,100,Jun,,,,,,130,137.5,-142.5,,137.5,,,,,,137.5,2
Philigg Legner,M,B,Raw,,95.3,100,Jun,,,,,,117.5,130,137.5,,137.5,,,,,,137.5,3
Dominik Dörfel,M,B,Raw,KSCFRAUENAU,107.8,110,Jun,,,,,,165,172.5,175,,175,,,,,,175,1
Domenik Bentrog,M,B,Raw,1. STENDALER KSV,105.9,110,Jun,,,,,,150,155,160,,160,,,,,,160,2
Frank Dziergwa,M,B,Raw,MEIN FITNESS SPREMBERG,59.9,60,Open,,,,,,92.5,97.5,102.5,,102.5,,,,,,102.5,1
Michael Polzer,M,B,Raw,,73.2,75,Open,,,,,,130,-140,145,,145,,,,,,145,1
Biörn Tesmer,M,B,Raw,TSV KROPP,74.1,75,Open,,,,,,80,82.5,,,82.5,,,,,,82.5,2
Gerrit Scheel,M,B,Raw,TSV FRIEDRICHSBERG,81.9,82.5,Open,,,,,,185,190.5,193,-195.5,193,,,,,,193,1
Stefan Gneist,M,B,Raw,KGTHENER SV,79.4,82.5,Open,,,,,,130,135,,,135,,,,,,135,2
Tim Kassner,M,B,Raw,KSP WEIDEN,88.4,90,Open,,,,,,140,150,155,,155,,,,,,155,1
Christian Gürgens,M,B,Raw,KUF HENNINGSDORF,89.6,90,Open,,,,,,142.5,145,147.5,,147.5,,,,,,147.5,2
Tilo Sauer,M,B,Raw,,83.4,90,Open,,,,,,140,145,-152.5,,145,,,,,,145,3
Andreas Machann,M,B,Raw,PIGSPOINT ESSLINGEN,85.7,90,Open,,,,,,-100,110,-115,,110,,,,,,110,4
Andreas Liggus,M,B,Raw,KRAFTWERK NÜRTINGEN,88.9,90,Open,,,,,,-110,-120,-120,,,,,,,,,DQ
Christogh Scheel,M,B,Raw,TSV FRIEDRICHSBERG,96.7,100,Open,,,,,,-215,215,-220,,215,,,,,,215,1
Marcus Lange,M,B,Raw,SPORTSELITE KLAUS REICHL,98.3,100,Open,,,,,,180,190,-200,,190,,,,,,190,2
Rico Martinez,M,B,Raw,,92.7,100,Open,,,,,,180,,,,180,,,,,,180,3
Oliver Hirschmann,M,B,Raw,TUSG MITTELSACHSEN,101.7,110,Open,,,,,,200,210,-215,,210,,,,,,210,1
Andreas Grillmeier,M,B,Raw,SPORTSELITE INGOLSTADT,100.6,110,Open,,,,,,150,-165,170,,170,,,,,,170,2
Chris Kalusok,M,B,Raw,IRON KRAFTSPORTSTUDIO,119.3,125,Open,,,,,,160,170,-180,,170,,,,,,170,1
Markus Schmidtner,M,B,Raw,SPORTSELITE INGOLSTADT,110.3,125,Open,,,,,,150,160,-165,,160,,,,,,160,2
Kacar Burak,M,B,Raw,,110.6,125,Open,,,,,,-230,,,,,,,,,,,DQ
Peter Hulin,M,B,Raw,,127.8,140,Open,,,,,,240,250,-252.5,,250,,,,,,250,1
Ronny Stein,M,B,Raw,ALPHA FITNESS,73.9,75,M 40-44,,,,,,-120,120,-127.5,,120,,,,,,120,1
Alexander Benik,M,B,Raw,XXXL DIE SCHMIEDE,89,90,M 40-44,,,,,,165,170,-172.5,,170,,,,,,170,1
Daniel Kaufmann,M,B,Raw,1. STENDALER KSV,88.3,90,M 40-44,,,,,,155,-160,,,155,,,,,,155,2
Lars Teufel,M,B,Raw,TEAM EISENHART,99.3,100,M 40-44,,,,,,180,190.5,197.5,,197.5,,,,,,197.5,1
Michael Lauenstein,M,B,Raw,LOK STENDAL,106.6,110,M 40-44,,,,,,190,-197.5,-197.5,,190,,,,,,190,1
Toralf Dörge,M,B,Raw,TAV BRÜEL,106.6,110,M 40-44,,,,,,137.5,142.5,145,,145,,,,,,145,2
FranzXaver Sgindler,M,B,Raw,KSP WEIDEN,112.6,125,M 40-44,,,,,,170,-180,-180,,170,,,,,,170,1
Biörn Pscherer,M,B,Raw,SPORTSELITE INGOLSTADT,126.4,140,M 40-44,,,,,,165,180,185,,185,,,,,,185,1
Matthias Fanselow,M,B,Raw,ALPHA FITNESS,126.5,140,M 40-44,,,,,,175,-180,-182.5,,175,,,,,,175,2
Steffen Giesecke,M,B,Raw,KGTHENER SV,64.9,67.5,M 45-49,,,,,,100,105,107.5,,107.5,,,,,,107.5,1
Dirk Schumann,M,B,Raw,,75,75,M 45-49,,,,,,105,115,-120,,115,,,,,,115,1
Steffen Reisbach,M,B,Raw,KGTHENER SV,88.9,90,M 45-49,,,,,,135,145,,,145,,,,,,145,1
Rico Martinez,M,B,Raw,,92.7,100,M 45-49,,,,,,170,,,,170,,,,,,170,1
Ronald Lucas,M,B,Raw,ORANIENBURGER BC,104.5,110,M 45-49,,,,,,210,217.5,-222.5,,217.5,,,,,,217.5,1
Alexander Bauer,M,B,Raw,,103.8,110,M 45-49,,,,,,160,170,-175,,170,,,,,,170,2
Kai-Uwe Werner,M,B,Raw,,117.4,125,M 45-49,,,,,,170,182.5,-190,,182.5,,,,,,182.5,1
Margit Flett,M,B,Raw,ORANIENBURGER BC,60,60,M 55-59,,,,,,37.5,40,42.5,,42.5,,,,,,42.5,1
Jürgen Dziergwa,M,B,Raw,MEIN FITNESS SPREMBERG,66.8,67.5,M 55-59,,,,,,100,110,-112.5,,110,,,,,,110,1
Uwe Herfort,M,B,Raw,KGTHENER SV,76.1,82.5,M 55-59,,,,,,135,-140,-142.5,,135,,,,,,135,1
Reiner Krieger,M,B,Raw,,83.8,90,M 55-59,,,,,,100,105,107.5,,107.5,,,,,,107.5,1
Joachim Flett,M,B,Raw,ORANIENBURGER BC,106.5,110,M 55-59,,,,,,145,150,,,150,,,,,,150,1
Biörn Tesmer,M,B,Raw,TSV KROPP,74.1,75,M 50-54,,,,,,80,85,,,85,,,,,,85,1
Bernhard Schmid,M,B,Raw,,78.6,82.5,M 50-54,,,,,,100,-102.5,-102.5,,100,,,,,,100,1
Frank Schütze,M,B,Raw,OSV ALTENBURG,108.6,110,M 50-54,,,,,,190,200,-210,,200,,,,,,200,1
Jeffri Höllenreiner,M,B,Raw,SPORTSELITE INGOLSTADT,131,140,M 50-54,,,,,,180,200,-205,,200,,,,,,200,1
Dirk Lauber,M,B,Raw,TEAM EISENHART,129.7,140,M 50-54,,,,,,150,-162.5,,,150,,,,,,150,2
Gerd Müller,M,B,Raw,LUCKY FITNESS,78.1,82.5,M 60-64,,,,,,120,125,127.5,,127.5,,,,,,127.5,1
Frank Kutzsch,M,B,Raw,KRAFT & FITNESS EILENBURG,89.8,90,M 60-64,,,,,,140,147.5,153,155.5,153,,,,,,153,1
Wojtek Kaminski,M,B,Raw,,83.4,90,M 60-64,,,,,,115,-122.5,-122.5,,115,,,,,,115,2
Norbert Rösel,M,B,Raw,PSV HEIDE,73,75,M 65-69,,,,,,115,117.5,-120,,117.5,,,,,,117.5,1
Reinhold Schaumann-Kelch,M,B,Raw,,82,82.5,M 65-69,,,,,,110,120,-122.5,,120,,,,,,120,1
Andreas Vigh,M,B,Raw,TSV KROPP,67.4,67.5,M 70-74,,,,,,80,85,90,,90,,,,,,90,1
Reinhold Sack,M,B,Raw,SV AMENDIGEN,74.8,75,M 70-74,,,,,,115,117.5,120,,120,,,,,,120,1
Roland Götz,M,B,Raw,FAIR FITNESS AALEN,82.7,90,M 70-74,,,,,,90,95,100,,100,,,,,,100,1
Heiner Schildbach,M,B,Raw,,99.3,100,M 70-74,,,,,,105,110,-115,,110,,,,,,110,1
Hans Klein,M,B,Raw,,65.5,67.5,M 75-79,,,,,,90,95,100,,100,,,,,,100,1
Dieter Schweitzer,M,B,Raw,LUCKY FITNESS,66.7,67.5,M 75-79,,,,,,45,47.5,50,,50,,,,,,50,2
Gerd Cedel,M,B,Raw,LOK STENDAL,68.7,75,M 75-79,,,,,,80,83,-85.5,,83,,,,,,83,1
Hans-Jürgen Dosin,M,B,Raw,ALPHA FITNESS,98.4,100,M 75-79,,,,,,100,105,107.5,110,107.5,,,,,,107.5,1
Hans-Jürgen Kuhlmey,M,B,Raw,BEST FITNESS ROSTOCK,122.6,125,M 75-79,,,,,,115,-120,120.5,-123,120.5,,,,,,120.5,1
Günther Wachs,M,B,Raw,ESV TURBINE ROSTOCK,75.5,82.5,M 80+,,,,,,55,-60,60,-65,60,,,,,,60,1
Jannes Bleßmann,M,S,Wraps,TSV KROPP,82.2,82.5,T 16-17,135,-150,150,,150,,,,,,,,,,,150,1
Leif Johannsen,M,S,Wraps,TSV KROPP,99.2,100,T 18-19,100,-120,-125,,100,,,,,,,,,,,100,1
Tom Weltzer,M,S,Wraps,TSV KROPP,102.9,110,T 18-19,200,220,-235,,220,,,,,,,,,,,220,1
Marcel Kleuß,M,S,Wraps,1. STENDALER KSV,90.3,100,Jun,190,205,-215,,205,,,,,,,,,,,205,1
Gorden Karkuschke,M,S,Wraps,TSV KROPP,77.1,82.5,Open,147.5,170,180,,180,,,,,,,,,,,180,1
Stefan Gneist,M,S,Wraps,KÖTHENER SV,78.5,82.5,Open,150,160,-170,,160,,,,,,,,,,,160,2
Marcus Lange,M,S,Wraps,SPORTSELITE KLAUS REICHL,96.9,100,Open,250,270,,,270,,,,,,,,,,,270,1
Christoph Scheel,M,S,Wraps,TSV FRIEDRICHSBERG,97,100,Open,215,225,235,,235,,,,,,,,,,,235,2
Christian Janke,M,S,Wraps,,92.5,100,Open,200,210,220,,220,,,,,,,,,,,220,3
Andreas Grillmeier,M,S,Wraps,SPORTSELITE INGOLSTADT,100.6,110,Open,-235,-235,,,,,,,,,,,,,,,DQ
Heiko Götz,M,S,Wraps,CLEVERFIT AALEN,119.2,125,Open,270,290,-300,,290,,,,,,,,,,,290,1
Danny Schmalz,M,S,Wraps,ALPHA FITNESS,124.5,125,M 40-44,285,300,313,,313,,,,,,,,,,,313,1
Reno Karkuschke,M,S,Wraps,TSV KROPP,66,67.5,M 45-49,80,,,,80,,,,,,,,,,,80,1
Steffen Reisbach,M,S,Wraps,KÖTHENER SV,80.5,82.5,M 45-49,200,,,,200,,,,,,,,,,,200,1
Semir Jassim,M,S,Wraps,SPORTSELITE KLAUS REICHL,100.6,110,M 45-49,-170,170,185,,185,,,,,,,,,,,185,1
Peter Rathke,M,S,Wraps,1. STENDALER KSV,94.5,100,M 55-59,245,261,-270,,261,,,,,,,,,,,261,1
Eckard Pelz,M,S,Wraps,FIT CLUB WUSTERHAUSEN,91.7,100,M 60-64,160,-170,-170,,160,,,,,,,,,,,160,1
Gorden Karkuschke,M,S,Multi-ply,TSV KROPP,77.1,82.5,Open,147.5,170,180,,180,,,,,,,,,,,180,1
Steffen Reisbach,M,S,Multi-ply,KÖTHENER SV,80.5,82.5,M 45-49,200,,,,200,,,,,,,,,,,200,1
Peter Rathke,M,S,Multi-ply,1. STENDALER KSV,94.5,100,M 55-59,245,261,-270,,261,,,,,,,,,,,261,1
Andrea Pauli,F,D,Multi-ply,KSC FRAUENAU,66.7,67.5,Open,,,,,,,,,,,145,155,161,,161,161,1
Leif Johannsen,M,D,Multi-ply,TSV KROPP,100.5,110,T 18-19,,,,,,,,,,,155,170,-182.5,,170,170,1
Reno Karkuschke,M,D,Multi-ply,TSV KROPP,66.9,67.5,Open,,,,,,,,,,,140,145,-152.5,,145,145,1
Björn Tesmer,M,D,Multi-ply,TSV KROPP,74.7,75,Open,,,,,,,,,,,145,155,157.5,,157.5,157.5,1
Gorden Karkuchke,M,D,Multi-ply,TSV KROPP,77.1,82.5,Open,,,,,,,,,,,150,170,180,,180,180,1
Thomas Haselsteiner,M,D,Multi-ply,,106.9,110,Open,,,,,,,,,,,300,325,330,-335,330,330,1
André Schober,M,D,Multi-ply,KSC FRAUENAU,152.2,140+,Open,,,,,,,,,,,200,215,,,215,215,1
Reno Karkuchke,M,D,Multi-ply,TSV KROPP,66.9,67.5,M 45-49,,,,,,,,,,,135,140,150,,150,150,1
Steffen Reisbach,M,D,Multi-ply,KÖTHENER SV,89.5,90,M 45-49,,,,,,,,,,,200,210,,,210,210,1
Björn Tesmer,M,D,Multi-ply,TSV KROPP,74.7,75,M 50-54,,,,,,,,,,,137.5,142.5,162.5,,162.5,162.5,1
Lothar Pritzl,M,D,Multi-ply,KSC FRAUENAU,89.9,90,M 55-59,,,,,,,,,,,175,185,-195,,185,185,1
Peter Rathke,M,D,Multi-ply,1. STENDALER KSV,94.5,100,M 55-59,,,,,,,,,,,245,261,-265,,261,261,1
Fred Marienfeldt,M,D,Multi-ply,POWERTEAM LANGENDAMM,87.4,90,M 65-69,,,,,,,,,,,180,195,205,211,205,205,1
Hans-Joachim Probst,M,D,Multi-ply,TSV KROPP,101.2,110,M 70-74,,,,,,,,,,,120,140,-152.5,,140,140,1
Gerd Meyerhofer,M,D,Multi-ply,HELLAS 9 ORANIENBAUM,76.2,82.5,M 75-79,,,,,,,,,,,85,90,95,,95,95,1
Sabrina Pauli,F,D,Raw,KSCFRAUENAU,64.4,67.5,T 13-15,,,,,,,,,,,70,80,,,80,80,1
Sandra Tesmer,F,D,Raw,TSV KROPP,69.9,75,Open,,,,,,,,,,,85,95,,,95,95,1
Sandra Tesmer,F,D,Raw,TSV KROPP,69.9,75,M 40-44,,,,,,,,,,,90,100,107.5,-112.5,107.5,107.5,1
Anita Riedel,F,D,Raw,KSCFRAUENAU,96.7,90+,M 50-54,,,,,,,,,,,95,105,112.5,,112.5,112.5,1
Ingrid Cedel,F,D,Raw,LOK STENDAL,64.2,67.5,M 65-69,,,,,,,,,,,92.5,97.5,101,,101,101,1
Max Glok,M,D,Raw,,83.2,90,T 13-15,,,,,,,,,,,130,150.5,155,160,155,155,1
Jannes Bleßmann,M,D,Raw,TSV KROPP,82.2,82.5,T 16-17,,,,,,,,,,,155,170,185,,185,185,1
Dennis Glok,M,D,Raw,,82.5,82.5,T 18-19,,,,,,,,,,,150,175,190,,190,190,1
Leif Johannsen,M,D,Raw,TSV KROPP,99.2,100,T 18-19,,,,,,,,,,,145,-155,,,145,145,1
Tom Weltzer,M,D,Raw,TSV KROPP,102.9,110,T 18-19,,,,,,,,,,,235,-242.5,242.5,,242.5,242.5,1
Josef Treml,M,D,Raw,SV BAYRISCH EISENSTEIN,123.1,125,T 18-19,,,,,,,,,,,155,165,-175,,165,165,1
Alexander Wartig,M,D,Raw,1. STENDALER KSV,76,82.5,Jun,,,,,,,,,,,205,215,222.5,,222.5,222.5,1
Nicolas Popp,M,D,Raw,1. TSV ALTENBERG,88.3,90,Jun,,,,,,,,,,,240,255,-262.5,,255,255,1
Stefan Schultheiß,M,D,Raw,1. STENDALER KSV,91.1,100,Jun,,,,,,,,,,,240,250,260,,260,260,1
Marcel Kleuß,M,D,Raw,,90.3,100,Jun,,,,,,,,,,,210,220,-225,,220,220,2
Frank Dziergwa,M,D,Raw,MEIN FITNESS SPREMBERG,59.9,60,Open,,,,,,,,,,,147.5,155,160,,160,160,1
Reno Karkuschke,M,D,Raw,TSV KROPP,67.1,67.5,Open,,,,,,,,,,,110,125,132.5,,132.5,132.5,1
Michael Polzer,M,D,Raw,,73.2,75,Open,,,,,,,,,,,220,240,250,-261.5,250,250,1
Biörn Tesmer,M,D,Raw,TSV KROPP,74.1,75,Open,,,,,,,,,,,145,160,,,160,160,2
Stefan Gneist,M,D,Raw,KOTHENER SV,79.4,82.5,Open,,,,,,,,,,,150,160,170,,170,170,1
Gordon Karkuschke,M,D,Raw,TSV KROPP,78.1,82.5,Open,,,,,,,,,,,130,-150,-160,,130,130,2
Jörg Monsees,M,D,Raw,,87.9,90,Open,,,,,,,,,,,250,260,-270,,260,260,1
Andreas Machann,M,D,Raw,PIGSPOINT ESSLINGEN,85.7,90,Open,,,,,,,,,,,180,200,220,,220,220,2
Marcus Lange,M,D,Raw,SPORTSELITE KLAUS REICHL,98.3,100,Open,,,,,,,,,,,250,280,-290,,280,280,1
Christian Janke,M,D,Raw,,92.4,100,Open,,,,,,,,,,,240,250,260,,260,260,2
Christoph Scheel,M,D,Raw,TSV FRIEDRICHSBERG,96.7,100,Open,,,,,,,,,,,220,230,252.5,,252.5,252.5,3
Heiko Götz,M,D,Raw,CLEVERFIT AALEN,119,125,Open,,,,,,,,,,,260,280,290,,290,290,1
André Schober,M,D,Raw,KSCFRAUENAU,152,140+,Open,,,,,,,,,,,200,217.5,225,,225,225,1
Reno Karkuschke,M,D,Raw,TSV KROPP,67.1,67.5,M 45-49,,,,,,,,,,,120,135,140,,140,140,1
Biörn Tesmer,M,D,Raw,TSV KROPP,74.1,75,M 50-54,,,,,,,,,,,155,165,173,175.5,173,173,1
Conny Händel,M,D,Raw,ALPHA FITNESS,81.2,82.5,M 45-49,,,,,,,,,,,180,191,195,,195,195,1
Alexander Benik,M,D,Raw,XXXL DIE SCHMIEDE,89,90,M 40-44,,,,,,,,,,,200,,,,200,200,1
Steffen Reisbach,M,D,Raw,KOTHENER SV,88.9,90,M 45-49,,,,,,,,,,,185,200,-205,,200,200,1
Michael Lauenstein,M,D,Raw,LOK STENDAL,106.6,110,M 40-44,,,,,,,,,,,260,270,-275.5,,270,270,1
Franz Ritzer,M,D,Raw,TEAM EISENHART,105.9,110,M 45-49,,,,,,,,,,,250,265,275,,275,275,1
Semir Jassim,M,D,Raw,SPORTSELITE KLAUS REICHL,101.6,110,M 45-49,,,,,,,,,,,190,200,220,,220,220,2
Björn Pscherer,M,D,Raw,SPORTSELITE INGOLSTADT,126.4,140,M 40-44,,,,,,,,,,,240,260,270,,270,270,1
Dirk Lauber,M,D,Raw,TEAM EISENHART,129.7,140,M 50-54,,,,,,,,,,,220,240.5,250,,250,250,1
Ingrid Cedel,M,D,Raw,LOK STENDAL,64.2,67.5,M 65-69,,,,,,,,,,,92.5,97.5,101,,101,101,1
Norbert Rösel,M,D,Raw,PSV HEIDE,73,75,M 65-69,,,,,,,,,,,145,155,165,,165,165,1
Gerd Cedel,M,D,Raw,LOK STENDAL,68.7,75,M 75-79,,,,,,,,,,,125,130,135,,135,135,1
Gerd Meyerhofer,M,D,Raw,HELLAS 9 ORANIENBAUM,76.1,82.5,M 75-79,,,,,,,,,,,85,90,97.5,,97.5,97.5,1
Lothar Pritzl,M,D,Raw,KSCFRAUENAU,89.8,90,M 55-59,,,,,,,,,,,175,190,,,190,190,1
Frank Kutzsch,M,D,Raw,KRAFT & FITNESS EILENBURG,89.8,90,M 60-64,,,,,,,,,,,220,235,,,235,235,1
Woitek Kaminski,M,D,Raw,,83.4,90,M 60-64,,,,,,,,,,,170,185,,,185,185,2
Hartmut Wiechert,M,D,Raw,PSV STRALSUND,88.9,90,M 70-74,,,,,,,,,,,130,145,155,160,155,155,1
Hans-Jürgen Dosin,M,D,Raw,ALPHA FITNESS,98.4,100,M 75-79,,,,,,,,,,,-120,120,130,137.5,130,130,1
Katharina Brening,F,SBD,Multi-ply,ORANIENBURGER BC,67.4,67.5,Open,120,125,-132.5,,125,67.5,70,-72.5,,70,127.5,132.5,-140,,132.5,327.5,1
Marlies Götze,F,SBD,Multi-ply,KRAFT & FITNESS EILENBURG,74.5,75,Open,190,205,215.5,,215.5,110,117.5,-123,,117.5,165,-172.5,172.5,,172.5,505.5,1
Sonja Rabenstein,F,SBD,Multi-ply,TEAM EISENHART,87.8,90,M 40-44,100,110,125,,125,70,77.5,-82.5,,77.5,130,140,147.5,,147.5,350,1
Sabine Kraus,F,SBD,Multi-ply,KSC FRAUENAU,76.2,82.5,M 45-49,140,155,162.5,,162.5,70,-80,80,82.5,80,120,135,-145,,135,377.5,1
Ulrike Ertl,F,SBD,Multi-ply,TEAM EISENHART,77.3,82.5,M 55-59,80,100,,,100,-40,45,,,45,165,180,190,,190,335,1
Julian Kraft,M,SBD,Multi-ply,TEAM EISENHART,74.6,75,T 18-19,190,200,210,,210,100,112.5,-120,,112.5,190,205,212.5,-220,212.5,535,1
Michael Holzapfel,M,SBD,Multi-ply,TEAM EISENHART,81.1,82.5,T 18-19,140,155,165,,165,90,100,107.5,,107.5,170,-182.5,182.5,,182.5,455,1
Josef Gabler,M,SBD,Multi-ply,TEAM EISENHART,95.7,100,T 18-19,140,150,160,,160,130,140,150,,150,190,210,225,,225,535,1
Florian Vogl,M,SBD,Multi-ply,TEAM EISENHART,87.5,90,Jun,200,210,220,,220,110,120,-125,,120,240,260,270,-280,270,610,1
Jonas Mockwitz,M,SBD,Multi-ply,KSB WEIDEN,114.6,125,Jun,245,260,270,,270,110,115,120,,120,265,280,300,,300,690,1
Jeffrey Podszuweit,M,SBD,Multi-ply,TUSG MITTELSACHSEN,87.7,90,Open,150,,,,150,225,-238,,,225,150,200,250,,250,625,1
Andreas Rosner,M,SBD,Multi-ply,TEAM EISENHART,85.5,90,Open,160,175,190,,190,115,122.5,-130,,122.5,255,265,-270,,265,577.5,2
Elias Dobrowolski,M,SBD,Multi-ply,SV QUITT ANKUM,98,100,Open,250,270,285,,285,190,-205,-205,,190,240,-260,-260,,240,715,1
Franz-Josef Pielmeier,M,SBD,Multi-ply,TEAM EISENHART,92,100,Open,140,150,170,,170,100,110,120,,120,180,205,220,,220,510,2
Wolfgang Schütz,M,SBD,Multi-ply,TEA,94.6,100,Open,50,80,100,,100,110,125,135,,135,180,200,-210,,200,435,3
Sergej Schumann,M,SBD,Multi-ply,KSC,106.5,110,Open,235,245,260,,260,135,147.5,155,,155,230,240,255,,255,670,1
Sascha Obermeier,M,SBD,Multi-ply,TEA,104.5,110,Open,170,180,190,,190,150,155,-160,,155,200,215,-225,,215,560,2
Michael Wenig,M,SBD,Multi-ply,TEA,107.3,110,Open,140,150,170,,170,110,120,130,,130,180,200,220,,220,520,3
Christopher Röper,M,SBD,Multi-ply,KRAFT & FITNESS EILENBURG,109,110,Open,-360,-385,,,-360,-285,-285,-300,,,,,,,,,DQ
Sven Lorenz,M,SBD,Multi-ply,,110.1,125,Open,260,280,300,,300,175,185,-200,,185,240,260,270,,270,755,1
Dominik Laumer,M,SBD,Multi-ply,TEAM EISENHART,111,125,Open,200,220,-230,,220,100,120,130,,130,230,250,270,,270,620,2
Christian Poppe,M,SBD,Multi-ply,TEA,133,140,Open,240,260,280,,280,150,170,180,,180,280,307.5,,,307.5,767.5,1
Florian Forster,M,SBD,Multi-ply,TEA,134.5,140,Open,210,230,240,,240,150,170,-180,,170,230,250,-270,,250,660,2
Bastian Ederer,M,SBD,Multi-ply,TEA,136.6,140,Open,210,220,230,,230,110,125,-135,,125,210,230,245,,245,600,3
Roman Reisch,M,SBD,Multi-ply,ORANIENBURGER BC,127.1,140,M 40-44,235,-250,262.5,,262.5,187.5,200,-210,,200,225,240,250,,250,712.5,1
Helmut Kraus,M,SBD,Multi-ply,KSC FRAUENAU,90.4,100,M 45-49,280,300,-315,,300,180,205,-215.5,,205,245,-260,-260,,245,750,1
Reinhold Blüml,M,SBD,Multi-ply,TEAM EISENHART,93.9,100,M 45-49,230,255,270,,270,140,160,170,,170,240,255,,,255,695,2
Josef Pangerl,M,SBD,Multi-ply,TEAM EISENHART,104.1,110,M 45-49,100,120,130,,130,90,-100,,,90,180,190,-195,,190,410,1
Hans-Jürgen Sandl,M,SBD,Multi-ply,TEAM EISENHART,121.4,125,M 45-49,145,160,177.5,,177.5,140,150,160,,160,250,265,-277.5,,265,602.5,1
Jochen Hofstetter,M,SBD,Multi-ply,POWERLIFTING ESSLINGEN,137.3,140,M 45-49,280,310.5,,,310.5,180,200,-220.5,,200,200,250,300,-315,300,810.5,1
Martin Thusbass,M,SBD,Multi-ply,TEAM EISENHART,106.6,110,M 50-54,140,165,185,,185,135,145,150,,150,245,262.5,275,280.5,275,610,1
Robert Baumann,M,SBD,Multi-ply,TEAM EISENHART,124.4,125,M 50-54,80,100,,,100,80,100,,,100,-220,240,260,,260,460,1
Michael Zitze,M,SBD,Multi-ply,TEAM EISENHART,136,140,M 50-54,260,-285,-285,,260,160,-175,175,,175,260,280,300,,300,735,1
Rainer Heinrich,M,SBD,Multi-ply,TEAM EISENHART,93.3,100,M 55-59,80,100,110,,110,100,110,,,110,200,210,225,,225,445,1
Josef Sussbauer,M,SBD,Multi-ply,TEAM EISENHART,97.9,100,M 60-64,150,160,170,,170,55,-65,,,55,185,195,205,,205,430,1
Karin Reingruber,F,SBD,Wraps,1. TSV ALTENBERG,55.1,56,Jun,92.5,100,105,,105,50,52.5,55,-57.5,55,110,120,125.5,130,125.5,285.5,1
Anna Slawik,F,SBD,Wraps,,59.4,60,Jun,65,70,75,,75,35,40,-42.5,,40,85,95,100,,100,215,1
Saskia Schauer,F,SBD,Wraps,1. TSV ALTENBERG,70.6,75,Jun,105,112.5,117.5,,117.5,62.5,-65,65,,65,105,112.5,117.5,,117.5,300,1
Nadine Cipriano,F,SBD,Wraps,,53.9,56,Open,90,100,-105,,100,50,55,-60,,55,115,125.5,-130,,125.5,280.5,1
Anja Günther,F,SBD,Wraps,KOTHENER SV,66.3,67.5,Open,-100,115,-120,,115,65,-70,-70,,65,115,125,-130,,125,305,1
Melanie Nowak,F,SBD,Wraps,SV BAYRISCH EISENSTEIN,66,67.5,Open,85,-95,-95,,85,40,45,50,,50,90,100,115,,115,250,2
Sarah Mazewski,F,SBD,Wraps,,66.5,67.5,Open,-90,-90,-90,,,,,,,,,,,,,,DQ
Franziska Gattke,F,SBD,Wraps,TUS,64.9,67.5,Open,-175,-175,-175,,,,,,,,,,,,,,DQ
Cristina Jnali,F,SBD,Wraps,TOPFIT HEIDENHEIM,72.5,75,Open,100,115,-122.5,,115,-60,60,-67.5,,60,110,125,135,,135,310,1
Sina Guttenberger,F,SBD,Wraps,1. TSV ALTENBERG,76.7,82.5,Open,80,-85,85,,85,40,42.5,45,,45,90,95,-100,,95,225,1
Nadia Otter,F,SBD,Wraps,TUSG MITTELSACHSEN,85,90,Open,195,210,220,,220,132.5,140,145,,145,220,240,-247.5,,240,605,1
Michaela Sideratos,F,SBD,Wraps,KSC FRAUENAU,60.4,67.5,M 40-44,80,90,95,,95,40,47.5,,,47.5,100,112.5,122.5,,122.5,265,1
Patricia Friedrich,F,SBD,Wraps,POWERLIFTING ESSLINGEN,70.3,75,M 40-44,110,120,130,,130,60,70,75,,75,110,130,145,-155,145,350,1
Heidrun Woltjen,F,SBD,Wraps,FIT & CHIC DELMENHORST,58.9,60,M 50-54,100,105,-110,,105,50,52.5,-55,,52.5,115,120,125,130,125,282.5,1
Trixi Berg,F,SBD,Wraps,,69,75,M 50-54,46,50,60,70,60,40,50,60,65,60,70,80,90,100,90,210,1
Tom Huschenbett,M,SBD,Wraps,,48,56,T 16-17,140,150,-155,,150,80,90,-95,,90,80,90,95,-100,95,335,1
Florian Abeltshauser,M,SBD,Wraps,NEW ENERGY FITNESS,98.5,100,T 16-17,180,190,200,,200,105,112.5,-117.5,,112.5,200,215,-220,,215,527.5,1
Marouan Benzadi,M,SBD,Wraps,NEW ENERGY FITNESS,74.5,75,T 18-19,-170,170,-190,,170,110,120,-125.5,,120,180,-200,-200,,180,470,1
Vincent Jan Eisenkolb,M,SBD,Wraps,,87.9,90,T 18-19,190,-200,200,,200,110,-115,115,,115,210,225,235,,235,550,1
Christoph Splisteser,M,SBD,Wraps,VFK HANNOVER,104.3,110,T 18-19,205,220,230,,230,127.5,132.5,135,,135,220,241,,,241,606,1
Herbert Czeplinski,M,SBD,Wraps,,114.8,125,T 18-19,285,300,-320,,300,205,215,220,,220,280,300,-310,,300,820,1
Andreas Buchner,M,SBD,Wraps,,73.4,75,Jun,175,-185,185,,185,125,-133,-133,,125,210,-220,,,210,520,1
Ferdinand Sacher,M,SBD,Wraps,FITAREA BADL HEILBRUNN,81.3,82.5,Jun,-185,185,192.5,,192.5,-117.5,122.5,130,-141,130,190,200,212.5,,212.5,535,1
Jan Münzner,M,SBD,Wraps,,80.2,82.5,Jun,160,170,-180,,170,90,100,-105,,100,170,180,185,,185,455,2
Marnn Engel,M,SBD,Wraps,,88.4,90,Jun,240,-250,,,240,-170,170,180,,180,260,,,,260,680,1
Viktor Heckel,M,SBD,Wraps,,97.2,100,Jun,185,205,220,,220,125,135,140,,140,215,230,240,,240,600,1
Tim Schweers,M,SBD,Wraps,POWERLIFTING ESSLINGEN,98.5,100,Jun,190,210,-215,,210,145,-160,160,,160,190,215,225,,225,595,2
Tobias Gnadl,M,SBD,Wraps,TEAM EISENHART,94.7,100,Jun,190,205,212.5,,212.5,120,-130,-130,,120,240,252.5,-260,,252.5,585,3
Michael König,M,SBD,Wraps,TEAM EISENHART,102.9,110,Jun,210,220,230,,230,130,145,152.5,,152.5,220,240,260,,260,642.5,1
Felix Boenicke,M,SBD,Wraps,SPORTSELITE INGOLSTADT,101.4,110,Jun,175,185,-200,,185,140,145,-150,,145,205,-215,-215,,205,535,2
Leroy Bachmann,M,SBD,Wraps,KSV 9,101.7,110,Jun,160,165,172.5,,172.5,105,112.5,-120,,112.5,190,200,210,,210,495,3
Daniel Krause,M,SBD,Wraps,,65.5,67.5,Open,-140,140,-150,,140,90,100,105,,105,-200,200,210,215,210,455,1
Klaus Leitmann,M,SBD,Wraps,,74.4,75,Open,190,200,-210,,200,110,120,125,,125,185,195,200,,200,525,1
Nino Kuhn,M,SBD,Wraps,,75.9,82.5,Open,220,240,252.5,,252.5,135,145,152.5,,152.5,250,270,-287.5,,270,675,1
Marcel Tauche,M,SBD,Wraps,,81.9,82.5,Open,240,252,253,,253,135,140,145,,145,220,230,240,,240,638,2
Julian Schramm,M,SBD,Wraps,DEICATED SPORTS,82.3,82.5,Open,192.5,200,205,,205,127.5,132.5,137.5,,137.5,180,195,217.5,,217.5,560,3
Matthias Schröter,M,SBD,Wraps,FITNESSCLUBALBATROS,80.9,82.5,Open,180,192.5,-207.5,,192.5,120,125,-130,,125,230,240,-250,,240,557.5,4
Johannes Oberndorfer,M,SBD,Wraps,,81.2,82.5,Open,150,-160,160,,160,90,-100,105,,105,210,-215,-215,,210,475,5
Jeffrey Podszuweit,M,SBD,Wraps,TUSG MITTELSACHSEN,87.8,90,Open,235,250,262.5,,262.5,180,190.5,195,,195,200,225,245,,245,702.5,1
Daniel Schimmel,M,SBD,Wraps,KRAFTWERK NÜRTINGEN,87.2,90,Open,240,245,-250,,245,150,160,165,,165,240,260,-272.5,,260,670,2
Arne Urban,M,SBD,Wraps,,84.7,90,Open,170,-185,-185,,170,155,165,-172.5,,165,200,215,222.5,,222.5,557.5,3
Fabian Baum,M,SBD,Wraps,TUS,83.3,90,Open,-200,-210,-210,,-200,-160,-160,-160,,,,,,,,,DQ
Marcus Lange,M,SBD,Wraps,SPORTSELITE KLAUS REICHL,98.7,100,Open,-250,250,270,,270,190,195,-197.5,,195,280,,-290,,280,745,1
Steffen Kolb,M,SBD,Wraps,,100,100,Open,245,260,270,,270,145,-160,-160,,145,235,250,260,,260,675,2
Andreas Klatt,M,SBD,Wraps,VFK HANNOVER,99.5,100,Open,190,210,215,,215,155,167.5,-172.5,,167.5,200,217.5,225,,225,607.5,3
Lars Marten Seidel,M,SBD,Wraps,Marten VFK HANNOVER,99.3,100,Open,225,235,240,,240,125,132.5,-135,,132.5,212.5,227.5,-235,,227.5,600,4
Lars Stöwesandt,M,SBD,Wraps,ESV LOK STENDAL,105,110,Open,240,255,262.5,,262.5,190,200,205,,205,290,-301,301.5,,301.5,769,1
Hagen Rokahr,M,SBD,Wraps,TUSG MITTELSACHSEN,107.8,110,Open,270,290,300,,300,175,-182.5,-182.5,,175,250,260,270,,270,745,2
Jan Fleckenstein,M,SBD,Wraps,,108.6,110,Open,250,-265,265,,265,192.5,200,-202.5,,200,270,-280,-280,,270,735,3
Robert Zickerow,M,SBD,Wraps,ASK FRANKFURT (ODER 1 E.V,102.5,110,Open,225,240,250,,250,135,142.5,-150,,142.5,270,-287.5,-301,,270,662.5,4
Dominik Hoppe,M,SBD,Wraps,POWERGYM UERDINGEN,104.3,110,Open,210,-225,227.5,,227.5,145,155,-162.5,,155,240,255,267.5,,267.5,650,5
Maximilian Regenberg,M,SBD,Wraps,1. TSV ALTENBERG,108,110,Open,240,-260,-260,,240,130,135,-140,,135,270,-290,-290,,270,645,6
Michael van Nes,M,SBD,Wraps,1. TSV ALTENBERG,101.2,110,Open,205,220,,,220,132.5,-140,140,,140,265,-275,275,,275,635,7
Christoph Gerbatsch,M,SBD,Wraps,VFK HANNOVER,104.8,110,Open,190,205,215,,215,135,-140,-140,,135,190,205,212.5,,212.5,562.5,8
Fabian Prochorowski,M,SBD,Wraps,ESV LOK STENDAL,105.4,110,Open,-200,-200,-200,,,,,,,,,,,,,,DQ
Andreas Wingendorff,M,SBD,Wraps,NEW ENERGY FITNESS,103.8,110,Open,-260,-260,-260,,,,,,,,,,,,,,DQ
Jan Schnoor,M,SBD,Wraps,,122.2,125,Open,260,275,-285,,275,167.5,180,-185,,180,255,275,280,,280,735,1
Michael Becherer,M,SBD,Wraps,POSITIV FITNESS INGOLSTAD,125,125,Open,260,280,-300,,280,160,170,180,,180,210,225,240,,240,700,2
Robin Müller,M,SBD,Wraps,1. TSV ALTENBERG,120.7,125,Open,210,222.5,230,,230,140,145,150,,150,240,260,265,,265,645,3
Michel Jähnel,M,SBD,Wraps,KSV 9,119,125,Open,200,-215,-220,,200,150,-160,-160,,150,235,245,260,,260,610,4
Patrick Ohleff,M,SBD,Wraps,POWERGYM UERDINGEN,132,140,Open,270,-290,290,,290,180,190,-200,,190,270,290,300,,300,780,1
Sven Kosmowski,M,SBD,Wraps,,136.1,140,Open,220,235,250,,250,180,190,-200,,190,260,275,-290,,275,715,2
Maximilian Serfas,M,SBD,Wraps,POWERLIFTING ESSLINGEN,142.1,140+,Open,230,250,-260,,250,160,170,175,,175,210,-240,240,-245,240,665,1
Ronny Stein,M,SBD,Wraps,ALPHA FITNESS,74.1,75,M 40-44,170,180,185,,185,115,125,130,,130,205,220,230,,230,545,1
Marco Lamprecht,M,SBD,Wraps,ALPHA FITNESS,108.3,110,M 40-44,255,275,290,,290,132.5,140,-145,,140,230,250,270,,270,700,1
Manfred Stieghorst,M,SBD,Wraps,,102.6,110,M 40-44,170,180,-190,,180,170,180,-190,,180,200,220,235,,235,595,2
Ronny Schmidt,M,SBD,Wraps,TUSG MITTELSACHSEN,111.5,125,M 40-44,160,180,-195,,180,140,-150,-150,,140,180,205,,,205,525,1
Oliver Dorsch,M,SBD,Wraps,POSITIV FITNESS INGOLSTAD,131.6,140,M 40-44,270,285,295,,295,170,-180,,,170,270,,,,270,735,1
Dietmar Zint,M,SBD,Wraps,CLEVERFIT AALEN,140.2,140+,M 40-44,330,350,365,,365,220,232.5,240,,240,305,320,,,320,925,1
Klaus Markl,M,SBD,Wraps,,96.5,100,M 45-49,190,210,220,230,220,105,115,120,,120,190,210,220,,220,560,1
Alexander Bauer,M,SBD,Wraps,,104.6,110,M 45-49,-200,210,230,,230,150,160,170,,170,170,180,190,,190,590,1
Goran Rankovic,M,SBD,Wraps,CLEVERFIT AALEN,117.9,125,M 45-49,140,160,172.5,,172.5,125,132.5,142.5,,142.5,200,225,240,,240,555,1
Harald Kraft,M,SBD,Wraps,1. TSV ALTENBERG,131.8,140,M 45-49,260,285,300,,300,170,182.5,-190,,182.5,280,305,317.5,,317.5,800,1
Paul Werfinger,M,SBD,Wraps,,146.7,140+,M 45-49,-180,-180,-180,,,,,,,,,,,,,,DQ
Bernd Backhaus,M,SBD,Wraps,NEW FITNESS WORLD PENZB,108,110,M 50-54,260,270,-275,,270,155,165,-170,,165,250,265,,,265,700,1
Hakki Bozat,M,SBD,Wraps,PIGSPOINT ESSLINGEN,67.5,67.5,M 55-59,110,125,-135,,125,100,110,-115,,110,180,190,192.5,,192.5,427.5,1
Gottfried Foltas,M,SBD,Wraps,,80.5,82.5,M 55-59,140,150,-160,,150,100,105,110.5,,110.5,180,192.5,202.5,,202.5,463,1
Georg Seisenberger,M,SBD,Wraps,VSV STRAUBING,92.6,100,M 55-59,160,175,182.5,,182.5,130,137.5,142.5,,142.5,217.5,230,237.5,,237.5,562.5,1
Jürgen Slawik,M,SBD,Wraps,,98.6,100,M 55-59,-180,-180,180,,180,145,-152.5,,,145,210,-230,-232.5,,210,535,2
Joachim Flett,M,SBD,Wraps,ORANIENBURGER BC,106.1,110,M 55-59,180,190,200,,200,145,150,155,,155,180,190,200,,200,555,1
Woitek Kaminski,M,SBD,Wraps,,84.4,90,M 60-64,100,110,,,110,100,,,,100,160,170,-190,,170,380,1
Steffen Burkhard,M,SBD,Wraps,,73.3,75,M 65-69,-145,150,160,,160,85,90,92.5,,92.5,140,147.5,155,,155,407.5,1
Norbert Rösel,M,SBD,Wraps,PSV HEIDE,73.3,75,M 65-69,90,97.5,105,,105,115,117.5,-120,,117.5,155,165,-172.5,,165,387.5,2
Reinhold Sack,M,SBD,Wraps,SV AMENDIGEN,74.3,75,M 70-74,140,145,150,,150,115,117.5,120,,120,160,167.5,172.5,,172.5,442.5,1
Hartmut Wiechert,M,SBD,Wraps,PSV STRALSUND,88.9,90,M 70-74,90,105,125,,125,77.5,82.5,-87.5,,82.5,135,145,160,,160,367.5,1
Ulrich Mielich,M,SBD,Wraps,SWK 1946 REGENSBURG,74,75,M 75-79,65,75,77.5,,77.5,50,55,57.5,,57.5,95,110,-117.5,,110,245,1
