Division,WeightClassKg,Place,Name,Team,BodyweightKg,Best3SquatKg,Best3BenchKg,Best3DeadliftKg,TotalKg,Equipment,Event,Sex
Boys,51.71,1,Blayze Ferguson,Frisco Heritage,50.71,102.06,81.65,108.86,292.57,Single-ply,SBD,M
Boys,51.71,2,Conner Gressett,Frisco Wakeland,51.39,92.99,43.09,106.59,242.67,Single-ply,SBD,M
Boys,51.71,3,Greyson Hickey,Frisco Reedy,49.58,83.91,47.63,104.33,235.87,Single-ply,SBD,M
Boys,51.71,4,Sam Hamidi,Frisco Lebanon Trail,51.62,77.11,52.16,104.33,233.6,Single-ply,SBD,M
Boys,55.79,1,Rolando Gudjardo,Frisco Centennial,55.43,127.01,68.04,142.88,337.93,Single-ply,SBD,M
Boys,55.79,2,Calvin Sall,Frisco Reedy,54.84,113.4,72.57,111.13,297.1,Single-ply,SBD,M
Boys,59.87,1,Will Best,Frisco Wakeland,58.06,151.95,65.77,158.76,376.48,Single-ply,SBD,M
Boys,59.87,2,Jared Banda,Frisco Reedy,56.43,104.33,68.04,147.42,319.78,Single-ply,SBD,M
Boys,59.87,3,Jesus Ponce,Frisco Lebanon Trail,57.33,122.47,65.77,129.27,317.51,Single-ply,SBD,M
Boys,59.87,4,Trevor Adkins,Frisco Lebanon Trail,59.19,108.86,65.77,142.88,317.51,Single-ply,SBD,M
Boys,67.13,1,Edward Zeng,Frisco Liberty,65,192.78,88.45,206.38,487.61,Single-ply,SBD,M
Boys,67.13,2,Josh Fieferik,Frisco Reedy,66.04,179.17,111.13,179.17,469.47,Single-ply,SBD,M
Boys,67.13,3,Jordan Hogg,Frisco Lebanon Trail,62.96,158.76,102.06,176.9,437.72,Single-ply,SBD,M
Boys,67.13,4,Gavin Carroll,Frisco Wakeland,67.09,165.56,86.18,149.69,401.43,Single-ply,SBD,M
Boys,67.13,5,Princeton Parker,Frisco Lebanon Trail,60.01,149.69,79.38,154.22,383.29,Single-ply,SBD,M
Boys,67.13,6,Reid Morris,Frisco Wakeland,62.1,136.08,72.57,149.69,358.34,Single-ply,SBD,M
Boys,67.13,7,Giveesh Daggopati,Frisco Heritage,67.04,113.4,72.57,145.15,331.12,Single-ply,SBD,M
Boys,67.13,DQ,Micah Chism,Frisco Heritage,67,136.08,,,,Single-ply,SBD,M
Boys,67.13,DQ,Noah Woodward,McKinney,65.95,,,,,Single-ply,SBD,M
Boys,74.84,1,Justin Smith,Frisco Centennial,74.03,204.12,106.59,204.12,514.83,Single-ply,SBD,M
Boys,74.84,2,Charlie Burkhart,Frisco Wakeland,74.21,183.7,127.01,195.04,505.76,Single-ply,SBD,M
Boys,74.84,3,Josh Foster,Frisco Lone Star,70.53,183.7,90.72,183.7,458.13,Single-ply,SBD,M
Boys,74.84,4,Jonathan Lis,Frisco Liberty,73.03,161.03,92.99,192.78,446.79,Single-ply,SBD,M
Boys,74.84,5,Roger Hubbard,Frisco Lone Star,72.35,170.1,90.72,183.7,444.52,Single-ply,SBD,M
Boys,74.84,6,Adam Washington,Frisco Heritage,71.49,151.95,99.79,181.44,433.18,Single-ply,SBD,M
Boys,74.84,7,Jordan Etienne,Frisco Lone Star,70.76,147.42,92.99,185.97,426.38,Single-ply,SBD,M
Boys,74.84,8,Vincente Rivera,McKinney North,71.17,147.42,104.33,154.22,405.97,Single-ply,SBD,M
Boys,74.84,9,Zach Erlewein,Frisco Reedy,73.98,147.42,88.45,167.83,403.7,Single-ply,SBD,M
Boys,74.84,10,Covey Norman,Frisco Heritage,68.4,140.61,70.31,183.7,394.63,Single-ply,SBD,M
Boys,74.84,11,Nate Jackson,McKinney Boyd,72.53,158.76,86.18,149.69,394.63,Single-ply,SBD,M
Boys,74.84,12,Corbin Lowrance,Frisco,74.3,131.54,90.72,165.56,387.82,Single-ply,SBD,M
Boys,74.84,13,Gunner Vestal,Frisco Liberty,72.85,95.25,56.7,192.78,344.73,Single-ply,SBD,M
Boys,74.84,14,David Perkins,Frisco Lebanon Trail,73.89,129.27,74.84,138.35,342.46,Single-ply,SBD,M
Boys,74.84,15,Alex Taylor,McKinney Boyd,68.95,106.59,72.57,154.22,333.39,Single-ply,SBD,M
Boys,74.84,DQ,Mac Landeau,Frisco Wakeland,72.44,179.17,,,,Single-ply,SBD,M
Boys,82.1,1,Hunter Chase,McKinney North,75.8,176.9,117.93,195.04,489.88,Single-ply,SBD,M
Boys,82.1,2,Jonathan Vaquera,Frisco Wakeland,81.37,181.44,104.33,190.51,476.27,Single-ply,SBD,M
Boys,82.1,3,Andrew Nguyen,McKinney North,80.24,174.63,102.06,190.51,467.2,Single-ply,SBD,M
Boys,82.1,4,Connor W,Frisco Heritage,78.56,163.29,106.59,195.04,464.93,Single-ply,SBD,M
Boys,82.1,5,Cannon Roeder,Frisco Wakeland,79.2,183.7,102.06,167.83,453.59,Single-ply,SBD,M
Boys,82.1,6,Connor Smith,Frisco Centennial,78.74,188.24,102.06,149.69,439.98,Single-ply,SBD,M
Boys,82.1,7,Dylan Emery,Frisco,76.88,158.76,111.13,158.76,428.64,Single-ply,SBD,M
Boys,82.1,8,Ty Martin,Frisco Reedy,78.06,167.83,97.52,158.76,424.11,Single-ply,SBD,M
Boys,82.1,9,Jared Musser,Frisco Reedy,81.65,158.76,108.86,151.95,419.57,Single-ply,SBD,M
Boys,82.1,10,Woodson Andrews,McKinney Boyd,82.05,147.42,97.52,165.56,410.5,Single-ply,SBD,M
Boys,82.1,11,Stone Slovak,Frisco Lebanon Trail,80.06,140.61,83.91,181.44,405.97,Single-ply,SBD,M
Boys,82.1,12,Hassan Khaled,Frisco Liberty,79.51,120.2,74.84,136.08,331.12,Single-ply,SBD,M
Boys,82.1,13,Aiden Reiter,Frisco Lebanon Trail,75.75,122.47,72.57,131.54,326.59,Single-ply,SBD,M
Boys,82.1,DQ,Oliq Kirksey,McKinney Boyd,77.97,142.88,97.52,,,Single-ply,SBD,M
Boys,89.81,1,Jacob Veres,Frisco Wakeland,89.36,204.12,138.35,213.19,555.65,Single-ply,SBD,M
Boys,89.81,2,Jaden Ramey,McKinney Boyd,85.87,192.78,124.74,208.65,526.17,Single-ply,SBD,M
Boys,89.81,3,Hudson Halbert,Frisco Reedy,84.59,183.7,115.67,183.7,483.08,Single-ply,SBD,M
Boys,89.81,4,Troy Parker,Frisco Centennial,88.54,183.7,111.13,188.24,483.08,Single-ply,SBD,M
Boys,89.81,5,Trey Roberts,McKinney North,88.72,179.17,104.33,181.44,464.93,Single-ply,SBD,M
Boys,89.81,6,Garrett Brooks,Frisco,88.59,167.83,124.74,165.56,458.13,Single-ply,SBD,M
Boys,89.81,7,Cody Selby,Frisco,86.59,142.88,90.72,188.24,421.84,Single-ply,SBD,M
Boys,89.81,8,Matthew Hutto,Frisco Centennial,89.77,154.22,90.72,174.63,419.57,Single-ply,SBD,M
Boys,89.81,9,Patrick McFall,Frisco Wakeland,87.86,158.76,90.72,163.29,412.77,Single-ply,SBD,M
Boys,89.81,10,Chase Dogan,Frisco Lebanon Trail,83.28,124.74,86.18,158.76,369.68,Single-ply,SBD,M
Boys,89.81,DQ,Jalen Ford,Frisco Lone Star,87.72,,,,,Single-ply,SBD,M
Boys,99.79,1,Matt Hawk,Frisco Independence,98.93,274.42,151.95,247.21,673.58,Single-ply,SBD,M
Boys,99.79,2,Cameron Maddox,McKinney Boyd,91.85,197.31,115.67,229.06,542.04,Single-ply,SBD,M
Boys,99.79,3,Brnadon Kim,Frisco Heritage,99.43,188.24,156.49,183.7,528.44,Single-ply,SBD,M
Boys,99.79,4,Cody Gonzales,Frisco Heritage,99.34,204.12,136.08,181.44,521.63,Single-ply,SBD,M
Boys,99.79,5,Isaiah Foster,Frisco Lone Star,92.49,192.78,142.88,183.7,519.36,Single-ply,SBD,M
Boys,99.79,6,James Ogbeide,Frisco Centennial,98.97,197.31,111.13,208.65,517.1,Single-ply,SBD,M
Boys,99.79,7,Trey Schlink,Frisco Wakeland,94.08,206.38,113.4,195.04,514.83,Single-ply,SBD,M
Boys,99.79,8,Matt Kyzlik,McKinney,97.02,204.12,99.79,195.04,498.95,Single-ply,SBD,M
Boys,99.79,9,Kamari Wilkerson,Frisco,95.48,185.97,106.59,201.85,494.42,Single-ply,SBD,M
Boys,99.79,10,Zach McMahon,McKinney North,92.76,165.56,95.25,201.85,462.66,Single-ply,SBD,M
Boys,99.79,11,Joe Miller,Frisco Independence,97.07,174.63,97.52,170.1,442.25,Single-ply,SBD,M
Boys,99.79,12,Mason Terry,Frisco Liberty,92.94,149.69,83.91,136.08,369.68,Single-ply,SBD,M
Boys,109.77,1,Jacob Thompson,Frisco,104.83,219.99,131.54,219.99,571.53,Single-ply,SBD,M
Boys,109.77,2,Cameron Rose,Frisco Heritage,104.1,201.85,129.27,210.92,542.04,Single-ply,SBD,M
Boys,109.77,3,Brandon McClornon,Frisco Centennial,103.19,213.19,111.13,190.51,514.83,Single-ply,SBD,M
Boys,109.77,4,Brayden Hughes,Frisco Centennial,106.96,185.97,117.93,188.24,492.15,Single-ply,SBD,M
Boys,109.77,5,Connor Krodel,Frisco Independence,109.68,163.29,124.74,158.76,446.79,Single-ply,SBD,M
Boys,109.77,6,TJ Ford,Frisco,105.82,124.74,102.06,151.95,378.75,Single-ply,SBD,M
Boys,109.77,7,Steven Pineda,Frisco Lone Star,106.28,233.6,,,233.6,Single-ply,S,M
Boys,124.74,1,Cesar Sandoval,Frisco Reedy,110.77,222.26,138.35,210.92,571.53,Single-ply,SBD,M
Boys,124.74,2,Landon Teel,McKinney North,115.94,183.7,124.74,240.4,548.85,Single-ply,SBD,M
Boys,124.74,3,Dreylan Washington,Frisco,112.04,195.04,131.54,210.92,537.51,Single-ply,SBD,M
Boys,124.74,4,Ben Perry,Frisco Independence,110.13,213.19,113.4,199.58,526.17,Single-ply,SBD,M
Boys,124.74,5,Mason Horton,Frisco Lone Star,113.17,197.31,124.74,201.85,523.9,Single-ply,SBD,M
Boys,124.74,6,Cameron Cover,McKinney North,120.16,195.04,124.74,185.97,505.76,Single-ply,SBD,M
Boys,124.74,7,Nathan Deason,Frisco Lone Star,117.16,197.31,111.13,183.7,492.15,Single-ply,SBD,M
Boys,124.74,8,Damian Stuver,Frisco Liberty,115.76,201.85,111.13,165.56,478.54,Single-ply,SBD,M
Boys,124.74,9,Adrian Gallegos,McKinney,114.8,181.44,113.4,179.17,474,Single-ply,SBD,M
Boys,124.74,10,Justin Mayers,Frisco Reedy,119.2,183.7,113.4,176.9,474,Single-ply,SBD,M
Boys,124.74,11,Wesley Thrasher,Frisco Centennial,123.15,183.7,108.86,179.17,471.74,Single-ply,SBD,M
Boys,124.74,12,Jaun Verdenes,McKinney,118.43,167.83,111.13,181.44,460.4,Single-ply,SBD,M
Boys,124.74,13,Ethan Lane,McKinney,113.81,181.44,92.99,176.9,451.32,Single-ply,SBD,M
Boys,124.74+,1,Izeya Floyd,Frisco Reedy,143.74,272.16,151.95,272.16,696.26,Single-ply,SBD,M
Boys,124.74+,2,Justin Stewart,McKinney Boyd,145.38,249.48,136.08,199.58,585.13,Single-ply,SBD,M
Boys,124.74+,3,Dylan Harris,Frisco Lone Star,126.23,204.12,129.27,215.46,548.85,Single-ply,SBD,M
Boys,124.74+,4,Deondray Fortman,McKinney,177.99,226.8,124.74,181.44,532.97,Single-ply,SBD,M
Boys,124.74+,5,Joe Crane,Frisco Centennial,137.08,206.38,117.93,201.85,526.17,Single-ply,SBD,M
Boys,124.74+,6,Josh Neal,Frisco,146.65,142.88,92.99,170.1,405.97,Single-ply,SBD,M
Boys,124.74+,DQ,Kris Estep,McKinney,153.13,163.29,108.86,,,Single-ply,SBD,M
