Division,WeightClassKg,Place,Name,Team,BodyweightKg,Best3SquatKg,Best3BenchKg,Best3DeadliftKg,TotalKg,Equipment,Event,Sex
Boys,51.71,1,Austin Mullennix,Sadler S & S Cons,51.26,174.63,83.91,156.49,415.04,Single-ply,SBD,M
Boys,51.71,2,James Ramsey,Pottsboro,51.71,142.88,68.04,131.54,342.46,Single-ply,SBD,M
Boys,51.71,3,Carter McFadden,Anna,49.9,117.93,61.23,136.08,315.25,Single-ply,SBD,M
Boys,51.71,4,Dustyn Sanders,Prosper,51.71,104.33,72.57,92.99,269.89,Single-ply,SBD,M
Boys,51.71,5,Davis McAlister,Aubrey,51.71,111.13,65.77,92.99,269.89,Single-ply,SBD,M
Boys,51.71,6,Carson Johnson,Paris,47.63,88.45,49.9,86.18,224.53,Single-ply,SBD,M
Boys,51.71,7,Austin Cuthbertson,Van Alstyne,43.09,90.72,45.36,79.38,215.46,Single-ply,SBD,M
Boys,51.71,8,Jimmy Rollins,Van Alstyne,51.26,77.11,47.63,90.72,215.46,Single-ply,SBD,M
Boys,51.71,9,Grant Gallup,Tom Bean,51.71,61.23,43.09,111.13,215.46,Single-ply,SBD,M
Boys,51.71,10,Parker Hillis,Lindsay,51.26,79.38,43.09,83.91,206.38,Single-ply,SBD,M
Boys,51.71,DQ,Derek Parsons,Lindsay,44.45,68.04,,,,Single-ply,SBD,M
Boys,51.71,DQ,Anthony Henry,Gainesville,47.63,95.25,,,,Single-ply,SBD,M
Boys,55.79,1,Brady Macaulay,Everman,55.34,136.08,79.38,181.44,396.89,Single-ply,SBD,M
Boys,55.79,2,Jorge Morales,Celina,54.88,124.74,92.99,140.61,358.34,Single-ply,SBD,M
Boys,55.79,3,Ever Barron,Everman,53.98,120.2,79.38,145.15,344.73,Single-ply,SBD,M
Boys,55.79,4,Deuntre Adamson,Paris,53.52,129.27,74.84,138.35,342.46,Single-ply,SBD,M
Boys,55.79,5,Justin Gibby,Aubrey,54.43,124.74,65.77,140.61,331.12,Single-ply,SBD,M
Boys,55.79,6,Lance Jones,Van Alstyne,53.52,108.86,58.97,122.47,290.3,Single-ply,SBD,M
Boys,55.79,7,Aaron Butler,Celeste,53.98,111.13,65.77,111.13,288.03,Single-ply,SBD,M
Boys,55.79,8,Jacob Vasquez,Leonard,52.62,97.52,52.16,113.4,263.08,Single-ply,SBD,M
Boys,55.79,9,Cade Dudley,Celina,53.52,86.18,65.77,97.52,249.48,Single-ply,SBD,M
Boys,55.79,10,Riley Fish,Pottsboro,54.88,90.72,56.7,102.06,249.48,Single-ply,SBD,M
Boys,59.87,1,Keiotti Bray,Paris,59.87,181.44,117.93,176.9,476.27,Single-ply,SBD,M
Boys,59.87,2,Edgar Aguirre,Everman,59.42,170.1,102.06,197.31,469.47,Single-ply,SBD,M
Boys,59.87,3,Luke Kirkbride,Denison,59.87,172.37,88.45,181.44,442.25,Single-ply,SBD,M
Boys,59.87,4,Tyler Watts,Valley View,58.97,151.95,90.72,158.76,401.43,Single-ply,SBD,M
Boys,59.87,5,Adam Cunningham,Pottsboro,58.97,158.76,90.72,138.35,387.82,Single-ply,SBD,M
Boys,59.87,6,Eli Ersch,Pottsboro,57.61,127.01,90.72,133.81,351.53,Single-ply,SBD,M
Boys,59.87,7,Josh Brimkley,Muenster,58.97,140.61,72.57,129.27,342.46,Single-ply,SBD,M
Boys,59.87,8,Jj Cooke,Aubrey,56.7,120.2,68.04,140.61,328.85,Single-ply,SBD,M
Boys,59.87,9,Nathan Trammell,Aubrey,57.15,122.47,65.77,131.54,319.78,Single-ply,SBD,M
Boys,59.87,10,Ethan Grant,Howe,56.7,113.4,68.04,133.81,315.25,Single-ply,SBD,M
Boys,59.87,11,Blake Hood,Tom Bean,59.42,102.06,68.04,138.35,308.44,Single-ply,SBD,M
Boys,59.87,12,Trey Shocklee,Leonard,57.61,102.06,61.23,127.01,290.3,Single-ply,SBD,M
Boys,59.87,13,Gregory Turner,Leonard,56.25,113.4,54.43,117.93,285.76,Single-ply,SBD,M
Boys,59.87,14,Ethan Spero,Leonard,56.25,92.99,45.36,108.86,247.21,Single-ply,SBD,M
Boys,59.87,DQ,Grey Page,Prosper,58.97,,,,,Single-ply,SBD,M
Boys,67.13,1,Wilson Kirkbride,Denison,66.68,219.99,108.86,208.65,537.51,Single-ply,SBD,M
Boys,67.13,2,Mike Acevedo,Anna,65.32,197.31,108.86,174.63,480.81,Single-ply,SBD,M
Boys,67.13,3,Nicholas Reid,Anna,64.86,197.31,92.99,188.24,478.54,Single-ply,SBD,M
Boys,67.13,4,Josue Hernandez,Anna,67.13,174.63,117.93,165.56,458.13,Single-ply,SBD,M
Boys,67.13,5,Finlee Rudicile,Farmersville,65.32,167.83,104.33,174.63,446.79,Single-ply,SBD,M
Boys,67.13,6,Wesley Gage,Paris,61.23,170.1,97.52,176.9,444.52,Single-ply,SBD,M
Boys,67.13,7,Luke Sciba,Aubrey,67.13,151.95,104.33,170.1,426.38,Single-ply,SBD,M
Boys,67.13,8,Jackson Haines,Prosper,63.96,156.49,90.72,142.88,390.09,Single-ply,SBD,M
Boys,67.13,9,Jordan Billions,Prosper,64.86,136.08,81.65,167.83,385.55,Single-ply,SBD,M
Boys,67.13,10,Keiton Eitelman,Pottsboro,65.32,147.42,77.11,145.15,369.68,Single-ply,SBD,M
Boys,67.13,11,TJ Nickerson,Paris,66.22,147.42,77.11,136.08,360.61,Single-ply,SBD,M
Boys,67.13,12,Montrel McCarty,Paris,67.13,127.01,88.45,142.88,358.34,Single-ply,SBD,M
Boys,67.13,13,Tramaine Rollerson,Paris,66.22,124.74,81.65,140.61,347,Single-ply,SBD,M
Boys,67.13,14,Sebastian Ruelas,Farmersville,64.41,124.74,90.72,122.47,337.93,Single-ply,SBD,M
Boys,67.13,15,Eli Mosby,Van Alstyne,64.86,124.74,74.84,127.01,326.59,Single-ply,SBD,M
Boys,67.13,16,Corbin Martin,Paris,63.5,124.74,65.77,131.54,322.05,Single-ply,SBD,M
Boys,67.13,17,Brett Long,Van Alstyne,65.77,115.67,58.97,124.74,299.37,Single-ply,SBD,M
Boys,67.13,18,David Huckaby,Tom Bean,62.6,102.06,68.04,124.74,294.84,Single-ply,SBD,M
Boys,67.13,19,Jackson Taylor,Celina,66.22,122.47,65.77,102.06,290.3,Single-ply,SBD,M
Boys,67.13,20,Cooper Carter,Lindsay,65.77,97.52,58.97,113.4,269.89,Single-ply,SBD,M
Boys,74.84,1,Mikey Hymel,Howe,73.94,219.99,138.35,222.26,580.6,Single-ply,SBD,M
Boys,74.84,2,Leo Sustaita,Gainesville,72.12,222.26,138.35,210.92,571.53,Single-ply,SBD,M
Boys,74.84,3,Ty McFail,Denison,72.57,183.7,113.4,181.44,478.54,Single-ply,SBD,M
Boys,74.84,4,Jaxson Rudicile,Farmersville,73.03,170.1,113.4,183.7,467.2,Single-ply,SBD,M
Boys,74.84,5,Jacob Jeffers,Pottsboro,74.84,183.7,104.33,149.69,437.72,Single-ply,SBD,M
Boys,74.84,6,Devin Howery,Bonham,74.39,161.03,102.06,170.1,433.18,Single-ply,SBD,M
Boys,74.84,7,Victor Martinez,Anna,72.57,161.03,92.99,165.56,419.57,Single-ply,SBD,M
Boys,74.84,8,Conner Smith,Sadler S & S Cons,73.03,151.95,92.99,165.56,410.5,Single-ply,SBD,M
Boys,74.84,9,Lee Hubbard,Gainesville,72.57,158.76,104.33,142.88,405.97,Single-ply,SBD,M
Boys,74.84,10,Hunter McCoy,Farmersville,71.67,158.76,81.65,158.76,399.16,Single-ply,SBD,M
Boys,74.84,11,Brody Bounds,Aubrey,68.04,147.42,88.45,158.76,394.63,Single-ply,SBD,M
Boys,74.84,12,Dylan Herrison,Prosper,68.04,154.22,86.18,151.95,392.36,Single-ply,SBD,M
Boys,74.84,13,Tony Karleskint,Tom Bean,73.48,142.88,90.72,136.08,369.68,Single-ply,SBD,M
Boys,74.84,14,Ethan Sewell,Callisburg,74.39,138.35,77.11,147.42,362.87,Single-ply,SBD,M
Boys,74.84,15,Quay Porter,Paris,68.95,115.67,74.84,156.49,347,Single-ply,SBD,M
Boys,74.84,16,Dalton Winchester,Howe,70.31,124.74,68.04,151.95,344.73,Single-ply,SBD,M
Boys,74.84,17,Jacob Beaupre,Tom Bean,73.94,113.4,102.06,129.27,344.73,Single-ply,SBD,M
Boys,74.84,18,Clay Barnett,Howe,73.03,122.47,72.57,142.88,337.93,Single-ply,SBD,M
Boys,74.84,19,Slater James,Blue Ridge,73.48,138.35,74.84,111.13,324.32,Single-ply,SBD,M
Boys,74.84,20,Logan Saxon,Bells,73.48,102.06,74.84,142.88,319.78,Single-ply,SBD,M
Boys,74.84,21,Haven Porfait,Pottsboro,68.04,106.59,72.57,127.01,306.17,Single-ply,SBD,M
Boys,74.84,22,Gage Bezner,Lindsay,70.76,97.52,58.97,113.4,269.89,Single-ply,SBD,M
Boys,74.84,DQ,Kaman Seals,Celeste,68.04,,,,,Single-ply,SBD,M
Boys,74.84,DQ,Chandur Peele,Prosper,73.48,147.42,,,,Single-ply,SBD,M
Boys,74.84,DQ,Joseph Brennon,Howe,74.84,192.78,,,,Single-ply,SBD,M
Boys,82.1,1,Austin Ballard,Bonham,79.83,231.33,145.15,235.87,612.35,Single-ply,SBD,M
Boys,82.1,2,William Goines,Gainesville,80.29,201.85,124.74,201.85,528.44,Single-ply,SBD,M
Boys,82.1,3,Quetyn Turentine,Everman,79.83,204.12,102.06,204.12,510.29,Single-ply,SBD,M
Boys,82.1,4,Trevor Coglon,Bells,76.2,165.56,113.4,192.78,471.74,Single-ply,SBD,M
Boys,82.1,5,Connor Glass,Sadler S & S Cons,78.47,188.24,88.45,190.51,467.2,Single-ply,SBD,M
Boys,82.1,6,Aidan Straub,Bonham,80.74,167.83,104.33,181.44,453.59,Single-ply,SBD,M
Boys,82.1,7,Seth Baucum,Callisburg,80.74,156.49,92.99,192.78,442.25,Single-ply,SBD,M
Boys,82.1,8,Hunter Griffin,Van Alstyne,82.1,167.83,102.06,167.83,437.72,Single-ply,SBD,M
Boys,82.1,9,Jake Taylor,Van Alstyne,78.02,170.1,88.45,167.83,426.38,Single-ply,SBD,M
Boys,82.1,10,Sam Whittenburg,Sadler S & S Cons,79.83,151.95,99.79,174.63,426.38,Single-ply,SBD,M
Boys,82.1,11,Adrian De La Cruz,Pottsboro,76.66,147.42,86.18,156.49,390.09,Single-ply,SBD,M
Boys,82.1,12,Hayden LeRond,Celina,81.19,142.88,86.18,158.76,387.82,Single-ply,SBD,M
Boys,82.1,13,Raul Contreras,Leonard,77.56,147.42,77.11,136.08,360.61,Single-ply,SBD,M
Boys,82.1,14,Miguel Alosta,Celeste,75.75,142.88,74.84,136.08,353.8,Single-ply,SBD,M
Boys,82.1,15,Alex Esparza,Pottsboro,75.3,136.08,70.31,145.15,351.53,Single-ply,SBD,M
Boys,82.1,16,Gostavo Morales,Celina,76.66,127.01,92.99,129.27,349.27,Single-ply,SBD,M
Boys,82.1,17,Jerred Newsome,Tom Bean,78.02,102.06,61.23,92.99,256.28,Single-ply,SBD,M
Boys,82.1,DQ,Raul Hernandez,Howe,75.75,151.95,83.91,,,Single-ply,SBD,M
Boys,89.81,1,Andrew Griffin,Howe,85.73,238.14,154.22,242.67,635.03,Single-ply,SBD,M
Boys,89.81,2,Austin Dickson,Anna,88.9,229.06,158.76,204.12,591.94,Single-ply,SBD,M
Boys,89.81,3,Ronnie Hart,Leonard,88.9,199.58,145.15,226.8,571.53,Single-ply,SBD,M
Boys,89.81,4,Rainier Corral,Valley View,88,195.04,97.52,217.72,510.29,Single-ply,SBD,M
Boys,89.81,5,Chris Gidney,Blue Ridge,88.9,170.1,129.27,181.44,480.81,Single-ply,SBD,M
Boys,89.81,6,Wayne Anderson,Prosper,84.82,190.51,102.06,183.7,476.27,Single-ply,SBD,M
Boys,89.81,7,Ethan Ellis,Denison,89.36,170.1,102.06,192.78,464.93,Single-ply,SBD,M
Boys,89.81,8,Tom Davis #2,Muenster,84.37,170.1,102.06,181.44,453.59,Single-ply,SBD,M
Boys,89.81,9,Edgar Guzman,Everman,87.54,158.76,102.06,183.7,444.52,Single-ply,SBD,M
Boys,89.81,10,Thad Clark,Celeste,88,149.69,113.4,158.76,421.84,Single-ply,SBD,M
Boys,89.81,11,Harley Gault,Leonard,87.09,154.22,90.72,158.76,403.7,Single-ply,SBD,M
Boys,89.81,12,Riley Plunkett,Celina,86.18,165.56,92.99,142.88,401.43,Single-ply,SBD,M
Boys,89.81,13,Hayden Tinney,Aubrey,84.82,147.42,83.91,151.95,383.29,Single-ply,SBD,M
Boys,89.81,14,Jackson Adkins,Howe,83.01,136.08,77.11,151.95,365.14,Single-ply,SBD,M
Boys,89.81,15,Josh Phillips,Bonham,87.09,133.81,95.25,124.74,353.8,Single-ply,SBD,M
Boys,89.81,16,Nathan Hacker,Muenster,82.55,120.2,52.16,147.42,319.78,Single-ply,SBD,M
Boys,89.81,17,Julius Carraway,Whitewright,86.64,111.13,61.23,140.61,312.98,Single-ply,SBD,M
Boys,89.81,DQ,Luke Jackson,Howe,87.09,,,,,Single-ply,SBD,M
Boys,99.79,1,Cruz Villegas,Everman,97.98,272.16,136.08,249.48,657.71,Single-ply,SBD,M
Boys,99.79,2,Malyk Newsome,Everman,97.98,260.82,131.54,238.14,630.49,Single-ply,SBD,M
Boys,99.79,3,John Cooper,Whitewright,90.72,226.8,129.27,247.21,603.28,Single-ply,SBD,M
Boys,99.79,4,Harrison Cornelius,Anna,97.07,238.14,158.76,185.97,582.87,Single-ply,SBD,M
Boys,99.79,5,Chase Harvey,Howe,90.26,204.12,136.08,219.99,560.19,Single-ply,SBD,M
Boys,99.79,6,Brody Wiggins,Blue Ridge,98.43,206.38,136.08,208.65,551.11,Single-ply,SBD,M
Boys,99.79,7,Colby Hammond,Callisburg,97.52,226.8,108.86,210.92,546.58,Single-ply,SBD,M
Boys,99.79,8,Brendon Kirk,Callisburg,90.72,204.12,108.86,215.46,528.44,Single-ply,SBD,M
Boys,99.79,9,Tanner Chambers,Callisburg,98.43,188.24,142.88,190.51,521.63,Single-ply,SBD,M
Boys,99.79,10,Ashton Welch,Everman,97.07,204.12,113.4,192.78,510.29,Single-ply,SBD,M
Boys,99.79,11,Devin Miller,Gainesville,94.35,204.12,120.2,183.7,508.02,Single-ply,SBD,M
Boys,99.79,12,Kendrick McAdams,Collinsville,94.35,183.7,106.59,183.7,474,Single-ply,SBD,M
Boys,99.79,13,Eric Nichols,Van Alstyne,97.52,190.51,124.74,156.49,471.74,Single-ply,SBD,M
Boys,99.79,14,T Lang,Anna,95.71,183.7,117.93,167.83,469.47,Single-ply,SBD,M
Boys,99.79,15,Maxwell Nazarko,Van Alstyne,95.25,176.9,106.59,181.44,464.93,Single-ply,SBD,M
Boys,99.79,16,Brandon Hubert,Pottsboro,91.17,170.1,97.52,185.97,453.59,Single-ply,SBD,M
Boys,99.79,17,Radly Hamm,Whitewright,96.62,165.56,120.2,161.03,446.79,Single-ply,SBD,M
Boys,99.79,18,Mason Doyle,Denison,98.43,142.88,90.72,190.51,424.11,Single-ply,SBD,M
Boys,99.79,19,Cody Newton,Aubrey,98.43,149.69,83.91,172.37,405.97,Single-ply,SBD,M
Boys,99.79,20,Kye Ranton,Aubrey,91.63,149.69,99.79,151.95,401.43,Single-ply,SBD,M
Boys,99.79,21,Jaron Gage,Whitewright,90.72,142.88,88.45,147.42,378.75,Single-ply,SBD,M
Boys,99.79,22,Jake Smallwood,Van Alstyne,94.8,106.59,68.04,115.67,290.3,Single-ply,SBD,M
Boys,99.79,DQ,Brantly Flynn,Howe,92.53,,,,,Single-ply,SBD,M
Boys,99.79,DQ,Dane Huchton,Muenster,90.26,154.22,,,,Single-ply,SBD,M
Boys,109.77,1,Asael Lagos,Gainesville,104.78,281.23,145.15,276.69,703.07,Single-ply,SBD,M
Boys,109.77,2,Jacob Taylor,Bells,109.32,238.14,156.49,226.8,621.42,Single-ply,SBD,M
Boys,109.77,3,Tyler Edington,Gainesville,102.06,235.87,142.88,195.04,573.79,Single-ply,SBD,M
Boys,109.77,4,Drew Williams,Denison,107.5,208.65,138.35,197.31,544.31,Single-ply,SBD,M
Boys,109.77,5,Albino Torres,Gainesville,103.42,204.12,106.59,210.92,521.63,Single-ply,SBD,M
Boys,109.77,6,Erik Gonzalez,Valley View,103.42,190.51,136.08,192.78,519.36,Single-ply,SBD,M
Boys,109.77,7,Colton Vibert,Leonard,101.6,201.85,120.2,195.04,517.1,Single-ply,SBD,M
Boys,109.77,8,Quin Dangerfield,Paris,107.5,190.51,131.54,192.78,514.83,Single-ply,SBD,M
Boys,109.77,9,Chris Garrison,Howe,101.6,199.58,127.01,183.7,510.29,Single-ply,SBD,M
Boys,109.77,10,Shaun Escobedo,Gainesville,107.95,199.58,108.86,199.58,508.02,Single-ply,SBD,M
Boys,109.77,11,Nathan Duffee,Howe,101.15,183.7,117.93,195.04,496.68,Single-ply,SBD,M
Boys,109.77,12,Ryan Riddle,Denison,103.87,176.9,129.27,188.24,494.42,Single-ply,SBD,M
Boys,109.77,13,Austin Pfeifer,Prosper,102.51,197.31,127.01,149.69,474,Single-ply,SBD,M
Boys,109.77,14,Austin McCallion,Aubrey,107.95,183.7,97.52,190.51,471.74,Single-ply,SBD,M
Boys,109.77,15,Ty Neves,Van Alstyne,102.06,161.03,102.06,181.44,444.52,Single-ply,SBD,M
Boys,109.77,16,Tanner Smith,Celeste,106.14,158.76,124.74,158.76,442.25,Single-ply,SBD,M
Boys,109.77,17,Jacob Batson,Farmersville,107.5,158.76,92.99,165.56,417.3,Single-ply,SBD,M
Boys,109.77,18,Angel Medina,Bells,100.24,156.49,102.06,142.88,401.43,Single-ply,SBD,M
Boys,109.77,19,Chuck Lincecum,Pottsboro,104.78,142.88,99.79,147.42,390.09,Single-ply,SBD,M
Boys,109.77,DQ,Rasheed Readus,Anna,102.97,204.12,,,,Single-ply,SBD,M
Boys,124.74,1,Blake Tredway,Anna,112.94,317.51,183.7,272.16,773.37,Single-ply,SBD,M
Boys,124.74,2,Daniel Dowling,Bonham,111.13,276.69,199.58,204.12,680.39,Single-ply,SBD,M
Boys,124.74,3,Wilson Tran,Gainesville,117.93,267.62,151.95,249.48,669.05,Single-ply,SBD,M
Boys,124.74,4,Willie Tutt,Everman,122.92,283.5,131.54,242.67,657.71,Single-ply,SBD,M
Boys,124.74,5,Esteban Cervantes,Valley View,122.02,272.16,117.93,231.33,621.42,Single-ply,SBD,M
Boys,124.74,6,Dylan Hicks,Celeste,123.83,240.4,136.08,208.65,585.13,Single-ply,SBD,M
Boys,124.74,7,Alec Narro,Tom Bean,117.48,231.33,124.74,222.26,578.33,Single-ply,SBD,M
Boys,124.74,8,Jeral Steward,Everman,116.57,219.99,133.81,219.99,573.79,Single-ply,SBD,M
Boys,124.74,9,Dylan Kays,Collinsville,113.85,226.8,145.15,199.58,571.53,Single-ply,SBD,M
Boys,124.74,10,Daniel Hernandez,Everman,113.4,204.12,142.88,215.46,562.45,Single-ply,SBD,M
Boys,124.74,11,Wesley Brooks,Denison,117.48,188.24,131.54,190.51,510.29,Single-ply,SBD,M
Boys,124.74,12,Sawyer Callies,Van Alstyne,119.29,213.19,97.52,174.63,485.34,Single-ply,SBD,M
Boys,124.74,13,Jose Conejo,Denison,112.49,172.37,117.93,176.9,467.2,Single-ply,SBD,M
Boys,124.74,14,Casey Pounds,Lindsay,110.68,185.97,99.79,167.83,453.59,Single-ply,SBD,M
Boys,124.74,15,Jonathan Reyes,Leonard,110.22,172.37,90.72,172.37,435.45,Single-ply,SBD,M
Boys,124.74,16,Kamron Rogers,Leonard,124.28,136.08,95.25,158.76,390.09,Single-ply,SBD,M
Boys,124.74,17,Luke Rogers #2,Lindsay,114.31,113.4,68.04,113.4,294.84,Single-ply,SBD,M
Boys,124.74,DQ,Alejandro Rangel,Celina,115.67,272.16,,,,Single-ply,SBD,M
Boys,124.74+,1,Brenden Gonzales,Gainesville,142.43,222.26,120.2,215.46,557.92,Single-ply,SBD,M
Boys,124.74+,2,Kyle Brooks,Denison,125.19,219.99,138.35,192.78,551.11,Single-ply,SBD,M
Boys,124.74+,3,Chris Wilson,Bonham,151.5,104.33,127.01,204.12,435.45,Single-ply,SBD,M
Boys,124.74+,4,Colby McAdams,Leonard,142.88,163.29,99.79,154.22,417.3,Single-ply,SBD,M
Boys,124.74+,DQ,Andrew Hammett,Aubrey,135.17,158.76,,,,Single-ply,SBD,M
Boys,124.74+,DQ,Stephen Fulencheck,Denison,127.46,,,,,Single-ply,SBD,M
Boys,124.74+,DQ,Aaron Prideoux,Prosper,135.17,197.31,117.93,,,Single-ply,SBD,M
