Division,WeightClassKg,Place,Name,Team,BodyweightKg,Best3SquatKg,Best3BenchKg,Best3DeadliftKg,TotalKg,Equipment,Event,Sex
Boys,51.71,1,Joseph Watkins,Pittsburg,49.26,102.06,52.16,113.4,267.62,Single-ply,SBD,M
Boys,51.71,2,Korbin Kuenemann,Longview Spring Hill,43.54,83.91,40.82,79.38,204.12,Single-ply,SBD,M
Boys,55.79,1,Wilberth Jimminez,Pittsburg,55.79,142.88,86.18,147.42,376.48,Single-ply,SBD,M
Boys,55.79,2,Ryder Brock,Detroit,52.66,124.74,61.23,127.01,312.98,Single-ply,SBD,M
Boys,59.87,3,Gage Baughman,Winnsboro,55.97,115.67,65.77,127.01,308.44,Single-ply,SBD,M
Boys,59.87,1,Josh Boone,Winnsboro,59.33,192.78,99.79,165.56,458.13,Single-ply,SBD,M
Boys,67.13,2,Nick McKee,Longview Spring Hill,60.06,151.95,86.18,156.49,394.63,Single-ply,SBD,M
Boys,59.87,3,Randy Whitley,Winnsboro,58.79,142.88,81.65,147.42,371.95,Single-ply,SBD,M
Boys,59.87,4,Dakota Warrick,Pittsburg,57.15,136.08,79.38,142.88,358.34,Single-ply,SBD,M
Boys,59.87,5,Garrett Plumler,Longview Spring Hill,57.06,124.74,70.31,147.42,342.46,Single-ply,SBD,M
Boys,59.87,6,Christian Edwards,Pittsburg,56.34,97.52,63.5,136.08,297.1,Single-ply,SBD,M
Boys,59.87,7,Cody Duckworth,Detroit,58.88,111.13,49.9,117.93,278.96,Single-ply,SBD,M
Boys,67.13,1,Quade Taliaferro,Gladewater Sabine,66.95,161.03,95.25,172.37,428.64,Single-ply,SBD,M
Boys,74.84,2,Tanner Roberts,Detroit,67.22,147.42,102.06,172.37,421.84,Single-ply,SBD,M
Boys,67.13,3,Cody Perry,Pittsburg,64.5,145.15,92.99,156.49,394.63,Single-ply,SBD,M
Boys,67.13,4,Jonathan Mowery,Winnsboro,67.04,138.35,97.52,145.15,381.02,Single-ply,SBD,M
Boys,74.84,5,Maurice Ramirez,Winnsboro,67.22,142.88,86.18,142.88,371.95,Single-ply,SBD,M
Boys,67.13,6,Trestan Brooks,Detroit,62.41,149.69,65.77,147.42,362.87,Single-ply,SBD,M
Boys,67.13,7,Joshua McCarver,Detroit,62.41,117.93,74.84,129.27,322.05,Single-ply,SBD,M
Boys,67.13,8,Tyler Mustin,Gladewater Sabine,66.95,97.52,63.5,131.54,292.57,Single-ply,SBD,M
Boys,74.84,1,Brandon Greene,Winnsboro,72.39,233.6,136.08,226.8,596.47,Single-ply,SBD,M
Boys,74.84,2,Dequaveon Douglas,Pittsburg,68.76,170.1,92.99,181.44,444.52,Single-ply,SBD,M
Boys,74.84,3,Travis Bryant,Detroit,71.67,167.83,79.38,174.63,421.84,Single-ply,SBD,M
Boys,74.84,4,Mikel Tharp,Detroit,69.04,151.95,79.38,154.22,385.55,Single-ply,SBD,M
Boys,74.84,5,Toby Moss,Detroit,71.3,147.42,86.18,131.54,365.14,Single-ply,SBD,M
Boys,74.84,6,Dylan Evans,Longview Spring Hill,69.94,124.74,81.65,142.88,349.27,Single-ply,SBD,M
Boys,74.84,7,Brandon Crawford,Detroit,73.84,131.54,70.31,147.42,349.27,Single-ply,SBD,M
Boys,82.1,1,Ryan Zimmerman,Winnsboro,79.2,183.7,106.59,226.8,517.1,Single-ply,SBD,M
Boys,82.1,2,Cj Williams,Gilmer,76.02,156.49,111.13,181.44,449.06,Single-ply,SBD,M
Boys,82.1,3,Dalton Huffman,Longview Spring Hill,79.29,163.29,108.86,174.63,446.79,Single-ply,SBD,M
Boys,82.1,4,LaDarius Craddock,Mount Pleasant,75.84,170.1,102.06,167.83,439.98,Single-ply,SBD,M
Boys,82.1,5,Matthew Vaughn,Mount Pleasant,76.66,156.49,106.59,170.1,433.18,Single-ply,SBD,M
Boys,82.1,6,Chico Martinez,Pittsburg,80.92,170.1,102.06,156.49,428.64,Single-ply,SBD,M
Boys,82.1,7,Jorge Martinez,Mount Pleasant,78.11,158.76,95.25,161.03,415.04,Single-ply,SBD,M
Boys,82.1,8,Sam Smith,Gladewater Sabine,81.74,165.56,83.91,165.56,415.04,Single-ply,SBD,M
Boys,82.1,9,Khiran Quarles,Pittsburg,78.29,165.56,88.45,136.08,390.09,Single-ply,SBD,M
Boys,82.1,10,Keith Henderson,Detroit,76.66,124.74,65.77,147.42,337.93,Single-ply,SBD,M
Boys,82.1,11,Michael Murphy,Detroit,79.02,124.74,72.57,136.08,333.39,Single-ply,SBD,M
Boys,89.81,1,Ryan Gearner,Winnsboro,89.81,213.19,115.67,206.38,535.24,Single-ply,SBD,M
Boys,89.81,2,Shawn Baldelamar,Pittsburg,84.91,215.46,104.33,188.24,508.02,Single-ply,SBD,M
Boys,89.81,3,Zach Parnell,Gladewater Sabine,86.55,170.1,106.59,192.78,469.47,Single-ply,SBD,M
Boys,89.81,4,Dallas Green,Longview Spring Hill,87.45,170.1,104.33,188.24,462.66,Single-ply,SBD,M
Boys,89.81,5,Tyson Gearner,Winnsboro,89.72,167.83,99.79,161.03,428.64,Single-ply,SBD,M
Boys,89.81,6,Dakota McCoy,Gilmer,85.37,145.15,92.99,167.83,405.97,Single-ply,SBD,M
Boys,89.81,7,Grant Key,Gladewater Sabine,83.01,145.15,77.11,156.49,378.75,Single-ply,SBD,M
Boys,89.81,8,Jacob Whitworth,Gladewater Sabine,88,90.72,52.16,106.59,249.48,Single-ply,SBD,M
Boys,89.81,DQ,Josue Carrea,Mount Pleasant,85.18,188.24,,,,Single-ply,SBD,M
Boys,99.79,1,Alejandro Barajas,Mount Pleasant,99.61,217.72,115.67,208.65,542.04,Single-ply,SBD,M
Boys,99.79,2,Bobby Coons,Longview Spring Hill,96.98,195.04,131.54,181.44,508.02,Single-ply,SBD,M
Boys,99.79,3,Baker Knight,Longview Spring Hill,95.16,195.04,99.79,197.31,492.15,Single-ply,SBD,M
Boys,99.79,4,Hagen Tucker,Longview Spring Hill,93.71,181.44,115.67,183.7,480.81,Single-ply,SBD,M
Boys,109.77,5,Marcus Weems,Winnsboro,100.02,188.24,113.4,174.63,476.27,Single-ply,SBD,M
Boys,99.79,6,Oliver Tan,Gladewater Sabine,90.81,167.83,111.13,165.56,444.52,Single-ply,SBD,M
Boys,99.79,7,Brandon Gann,Gladewater Sabine,94.08,149.69,97.52,156.49,403.7,Single-ply,SBD,M
Boys,99.79,8,Will Anderson,Mount Pleasant,91.08,136.08,90.72,140.61,367.41,Single-ply,SBD,M
Boys,99.79,9,Jacob Reed,Gladewater Sabine,90.81,124.74,81.65,151.95,358.34,Single-ply,SBD,M
Boys,99.79,DQ,Will Burrows,Mount Pleasant,96.71,,,,,Single-ply,SBD,M
Boys,109.77,1,Anthony McGovern,Winnsboro,104.42,272.16,142.88,201.85,616.89,Single-ply,SBD,M
Boys,109.77,2,Morgan Knight,Longview Spring Hill,106.05,192.78,138.35,204.12,535.24,Single-ply,SBD,M
Boys,109.77,3,James Hanson,Mount Pleasant,107.23,181.44,102.06,226.8,510.29,Single-ply,SBD,M
Boys,109.77,4,Caleb Massey,Pittsburg,101.33,183.7,122.47,181.44,487.61,Single-ply,SBD,M
Boys,109.77,5,Cody Duvall,Longview Spring Hill,108.59,190.51,99.79,188.24,478.54,Single-ply,SBD,M
Boys,109.77,6,Cody McLemore,Winnsboro,107.14,181.44,111.13,183.7,476.27,Single-ply,SBD,M
Boys,109.77,7,Devon Hargrove,Mount Pleasant,102.24,174.63,102.06,161.03,437.72,Single-ply,SBD,M
Boys,109.77,DQ,Daniel Gilmore,Pittsburg,108.68,210.92,131.54,,,Single-ply,SBD,M
Boys,124.74,1,Brian Taylor,Pittsburg,124.47,226.8,147.42,231.33,605.55,Single-ply,SBD,M
Boys,124.74,2,Daniel Quinones,Pittsburg,118.12,238.14,149.69,215.46,603.28,Single-ply,SBD,M
Boys,124.74,3,Jack Adams,Winnsboro,124.65,247.21,131.54,147.42,526.17,Single-ply,SBD,M
Boys,124.74,4,Colton Brown,Gladewater Sabine,119.66,190.51,113.4,206.38,510.29,Single-ply,SBD,M
Boys,124.74,5,Tj Rovell,Mount Pleasant,116.39,192.78,88.45,181.44,462.66,Single-ply,SBD,M
Boys,124.74+,1,Will Wright,Mount Pleasant,164.56,210.92,138.35,190.51,539.77,Single-ply,SBD,M
Boys,124.74+,2,Francisco Morales,Mount Pleasant,127.28,188.24,90.72,185.97,464.93,Single-ply,SBD,M
