Division,WeightClassKg,Place,Name,Team,BodyweightKg,Best3SquatKg,Best3BenchKg,Best3DeadliftKg,TotalKg,Equipment,Event,Sex
Boys,51.71,1,Johney Phelps,Palestine Westwood,51.17,174.63,88.45,156.49,419.57,Single-ply,SBD,M
Boys,51.71,2,Jesse Peacock,Diana New Diana,49.9,124.74,79.38,136.08,340.19,Single-ply,SBD,M
Boys,51.71,3,Richard Lowrie,Kemp,51.62,124.74,74.84,136.08,335.66,Single-ply,SBD,M
Boys,51.71,4,Wade Simpson,Maud,51.17,127.01,58.97,131.54,317.51,Single-ply,SBD,M
Boys,51.71,5,Ethan Stack,Scurry-Rosser,48.53,111.13,63.5,127.01,301.64,Single-ply,SBD,M
Boys,51.71,6,Braden Fears,White Oak,49.44,102.06,61.23,122.47,285.76,Single-ply,SBD,M
Boys,51.71,7,Christian Schilder,Shelbyville,47.26,104.33,54.43,108.86,267.62,Single-ply,SBD,M
Boys,51.71,DQ,Juan Hernández #13,Palmer,50.8,,,,,Single-ply,SBD,M
Boys,55.79,DQ,Marcos Dominguez,Buffalo,51.94,,,,,Single-ply,SBD,M
Boys,55.79,DQ,Bobby Sanchez,Centerville,51.94,,,,,Single-ply,SBD,M
Boys,55.79,1,Aaron Johnson,Jefferson,54.61,145.15,95.25,167.83,408.23,Single-ply,SBD,M
Boys,55.79,2,José Castillo,Grapeland,53.52,151.95,77.11,167.83,396.89,Single-ply,SBD,M
Boys,55.79,3,Jacori Denmark,Hughes Springs,55.07,136.08,97.52,156.49,390.09,Single-ply,SBD,M
Boys,55.79,4,Donovan Roberts,Winnsboro,55.61,140.61,72.57,136.08,349.27,Single-ply,SBD,M
Boys,55.79,5,Brodie Cantu,Dawson,54.07,129.27,81.65,133.81,344.73,Single-ply,SBD,M
Boys,55.79,DQ,Devin Jones,Hooks,55.07,,,,,Single-ply,SBD,M
Boys,59.87,DQ,Jesus Perez,Kemp,56.02,120.2,88.45,,,Single-ply,SBD,M
Boys,59.87,1,Dylan Gibson,Maud,59.69,190.51,99.79,195.04,485.34,Single-ply,SBD,M
Boys,67.13,2,Jimmy Kimbrell,Kemp,60.1,170.1,81.65,170.1,421.84,Single-ply,SBD,M
Boys,59.87,3,Tylor Chandler,Scurry-Rosser,58.33,161.03,72.57,181.44,415.04,Single-ply,SBD,M
Boys,59.87,4,Caleb Bush,Elysian Fields,59.24,149.69,90.72,170.1,410.5,Single-ply,SBD,M
Boys,59.87,5,Ryan Laborde,Winnsboro,57.33,167.83,86.18,154.22,408.23,Single-ply,SBD,M
Boys,59.87,6,Hector Crow,Palmer,59.15,131.54,97.52,176.9,405.97,Single-ply,SBD,M
Boys,59.87,7,Noah Craver,Mount Vernon,59.51,145.15,88.45,149.69,383.29,Single-ply,SBD,M
Boys,59.87,8,Isaiah Peters,Paris Chisum,58.97,147.42,88.45,145.15,381.02,Single-ply,SBD,M
Boys,67.13,9,Jordan Ramirez,Palmer,60.06,142.88,81.65,154.22,378.75,Single-ply,SBD,M
Boys,59.87,DQ,Bryden Lopez,Commerce,59.51,136.08,83.91,,,Single-ply,SBD,M
Boys,59.87,DQ,Ryan Fincher,Queen City,56.88,161.03,,,,Single-ply,SBD,M
Boys,67.13,1,Case Chambliss,Joaquin,65.32,210.92,122.47,210.92,544.31,Single-ply,SBD,M
Boys,67.13,2,Jaquay Brown,Milford,65.41,224.53,104.33,199.58,528.44,Single-ply,SBD,M
Boys,67.13,3,Kacie Crossland,Kemp,66.59,208.65,102.06,195.04,505.76,Single-ply,SBD,M
Boys,74.84,4,Corey Bearden,Shelbyville,67.36,192.78,117.93,192.78,503.49,Single-ply,SBD,M
Boys,67.13,5,Lucas Pinnell,Winnsboro,66.59,179.17,97.52,206.38,483.08,Single-ply,SBD,M
Boys,67.13,6,Miles Pearson,Diana New Diana,66.5,165.56,108.86,204.12,478.54,Single-ply,SBD,M
Boys,67.13,7,Logan Johnson,Lone Oak,66.41,165.56,97.52,179.17,442.25,Single-ply,SBD,M
Boys,67.13,DQ,Dj Hicks,Palestine Westwood,67.04,,,,,Single-ply,SBD,M
Boys,67.13,DQ,Jalen Burns,Palestine Westwood,64.95,,,,,Single-ply,SBD,M
Boys,67.13,DQ,Matt Rumbaugh,Commerce,65.41,,,,,Single-ply,SBD,M
Boys,74.84,1,Chris Box,Elkhart,72.48,265.35,129.27,195.04,589.67,Single-ply,SBD,M
Boys,74.84,2,Brandon Gillen,Paris Chisum,73.66,222.26,149.69,217.72,589.67,Single-ply,SBD,M
Boys,74.84,3,Jarrett Morgan,Queen City,73.94,217.72,136.08,235.87,589.67,Single-ply,SBD,M
Boys,74.84,4,Broch Saxton,New Waverly,74.48,208.65,138.35,226.8,573.79,Single-ply,SBD,M
Boys,74.84,5,Gabriel DuBose,Hughes Springs,74.12,226.8,145.15,185.97,557.92,Single-ply,SBD,M
Boys,74.84,6,Jeremy Moses,Winnsboro,72.85,213.19,133.81,206.38,553.38,Single-ply,SBD,M
Boys,74.84,7,Eli Gammage,Lone Oak,73.39,204.12,131.54,208.65,544.31,Single-ply,SBD,M
Boys,74.84,8,Ethan Rakich,Winnsboro,71.85,213.19,113.4,201.85,528.44,Single-ply,SBD,M
Boys,74.84,9,Blaine Jarratt,Caddo Mills,73.03,197.31,111.13,219.99,528.44,Single-ply,SBD,M
Boys,74.84,10,Alex Thlang,Elkhart,71.85,210.92,117.93,197.31,526.17,Single-ply,SBD,M
Boys,74.84,DQ,Rowdy Upchurch,Elkhart,73.12,213.19,122.47,,,Single-ply,SBD,M
Boys,82.1,1,Tavion Hall,Kerens,81.83,281.23,151.95,256.28,689.46,Single-ply,SBD,M
Boys,82.1,2,Zack Gray,Elkhart,81.65,272.16,136.08,235.87,644.1,Single-ply,SBD,M
Boys,82.1,3,Garrett Flanagan,Elkhart,78.83,254.01,129.27,235.87,619.15,Single-ply,SBD,M
Boys,82.1,4,Maurice Ramirez,Winnsboro,81.1,242.67,140.61,206.38,589.67,Single-ply,SBD,M
Boys,82.1,5,Haiden Zarate,Centerville,77.84,204.12,131.54,224.53,560.19,Single-ply,SBD,M
Boys,82.1,6,Clayton Florio,Caddo Mills,80.74,226.8,113.4,204.12,544.31,Single-ply,SBD,M
Boys,82.1,7,Patrick Hoffman,Mount Vernon,81.1,204.12,127.01,201.85,532.97,Single-ply,SBD,M
Boys,82.1,8,Eric Shaw,Lone Oak,75.57,185.97,136.08,176.9,498.95,Single-ply,SBD,M
Boys,82.1,DQ,Devin Shaw,Lone Oak,76.93,199.58,,,,Single-ply,SBD,M
Boys,82.1,DQ,Cer'Charvie Berry,San Augustine,80.1,219.99,127.01,,,Single-ply,SBD,M
Boys,89.81,1,Anthony Howard,New London West Rusk,89.45,247.21,142.88,265.35,655.44,Single-ply,SBD,M
Boys,89.81,2,Octavian Burrell,Shelbyville,87,254.01,149.69,229.06,632.76,Single-ply,SBD,M
Boys,89.81,3,Tyson Gearner,Winnsboro,87.63,222.26,161.03,222.26,605.55,Single-ply,SBD,M
Boys,89.81,4,Jace Jarvis,Caddo Mills,85.82,240.4,129.27,233.6,603.28,Single-ply,SBD,M
Boys,89.81,5,Grant Stansberry,Gladewater Sabine,89.09,235.87,136.08,226.8,598.74,Single-ply,SBD,M
Boys,89.81,6,Andre Agan,Elkhart,86.82,229.06,140.61,226.8,596.47,Single-ply,SBD,M
Boys,89.81,7,Tony Burns,Mount Enterprise,88.36,238.14,145.15,199.58,582.87,Single-ply,SBD,M
Boys,89.81,DQ,Juan Dorantes,Hughes Springs,87.36,229.06,120.2,,,Single-ply,SBD,M
Boys,89.81,DQ,Jaylon Hardeman,Jefferson,88.36,233.6,124.74,,,Single-ply,SBD,M
Boys,89.81,DQ,Johnathan Pearson,Neches,89.63,215.46,,,,Single-ply,SBD,M
Boys,99.79,1,Bryan Winburn,Winnsboro,99.7,288.03,170.1,224.53,682.66,Single-ply,SBD,M
Boys,109.77,2,Zachary Hughes,Eustace,99.97,226.8,172.37,233.6,632.76,Single-ply,SBD,M
Boys,99.79,3,Keanu Fathal,Corsicana Mildred,96.34,244.94,140.61,215.46,601.01,Single-ply,SBD,M
Boys,99.79,4,Traylon Swanson,Elkhart,94.71,240.4,140.61,217.72,598.74,Single-ply,SBD,M
Boys,99.79,5,Cody Anderson,Cumby,92.99,244.94,120.2,213.19,578.33,Single-ply,SBD,M
Boys,99.79,6,Parker Hartcraft,Queen City,95.71,258.55,127.01,192.78,578.33,Single-ply,SBD,M
Boys,99.79,7,Taner Tunstall,Elkhart,99.06,226.8,140.61,204.12,571.53,Single-ply,SBD,M
Boys,99.79,DQ,Mikey Grubbs,Mount Enterprise,95.25,213.19,,,,Single-ply,SBD,M
Boys,99.79,DQ,Dalton White,Redwater,95.62,226.8,,,,Single-ply,SBD,M
Boys,99.79,DQ,Zack McGuire,Ore City,98.25,254.01,,,,Single-ply,SBD,M
Boys,109.77,1,Kal Metcalf,Shelbyville,106.96,317.51,170.1,244.94,732.55,Single-ply,SBD,M
Boys,109.77,2,Matt Coker,Caddo Mills,106.78,272.16,183.7,242.67,698.53,Single-ply,SBD,M
Boys,109.77,3,Chris Bloyd,White Oak,105.14,272.16,167.83,240.4,680.39,Single-ply,SBD,M
Boys,109.77,4,Victor Mejia,Palmer,107.59,258.55,158.76,249.48,666.78,Single-ply,SBD,M
Boys,124.74,5,Reagan Cloud,Corsicana Mildred,109.95,272.16,154.22,226.8,653.17,Single-ply,SBD,M
Boys,109.77,6,Rowdy Smith,Winnsboro,104.87,254.01,142.88,195.04,591.94,Single-ply,SBD,M
Boys,109.77,7,Desvaion Crane,San Augustine,106.78,254.01,129.27,201.85,585.13,Single-ply,SBD,M
Boys,109.77,DQ,Reece Clark,Troup,104.24,,,,,Single-ply,SBD,M
Boys,109.77,DQ,Landon Simmons,Jefferson,103.06,,,,,Single-ply,SBD,M
Boys,124.74,1,Ryan Mitchell,Teague,122.92,328.85,204.12,249.48,782.45,Single-ply,SBD,M
Boys,124.74,2,Leal Sample,Scurry-Rosser,113.49,263.08,190.51,254.01,707.6,Single-ply,SBD,M
Boys,124.74,3,Corey Brister,New London West Rusk,123.56,256.28,154.22,249.48,659.98,Single-ply,SBD,M
Boys,124.74,4,Fili Rincon,Lone Oak,110.13,254.01,151.95,226.8,632.76,Single-ply,SBD,M
Boys,124.74,5,Luke Linebaugh,Kemp,116.75,256.28,147.42,226.8,630.49,Single-ply,SBD,M
Boys,124.74,6,Julio Hiracheto,Cushing,115.76,226.8,167.83,233.6,628.23,Single-ply,SBD,M
Boys,124.74,7,Nelson Ochoa,Malakoff,115.21,235.87,147.42,208.65,591.94,Single-ply,SBD,M
Boys,124.74,8,Will Dehart,Elkhart,110.59,256.28,131.54,195.04,582.87,Single-ply,SBD,M
Boys,124.74,9,Chis Figueroa,Grand Saline,116.12,235.87,122.47,222.26,580.6,Single-ply,SBD,M
Boys,124.74,10,Erik Rodriguez,Overton,113.31,238.14,122.47,217.72,578.33,Single-ply,SBD,M
Boys,124.74,11,Trey Potter,Ore City,114.49,222.26,154.22,195.04,571.53,Single-ply,SBD,M
Boys,124.74+,1,Trey Villarreal,Diana New Diana,153.22,272.16,226.8,288.03,786.98,Single-ply,SBD,M
Boys,124.74+,2,AJ Garcia,Hughes Springs,144.06,326.59,154.22,244.94,725.75,Single-ply,SBD,M
Boys,124.74+,3,Trey Harris,Hemphill,125.74,256.28,151.95,272.16,680.39,Single-ply,SBD,M
Boys,124.74+,4,Zack Watson,Ore City,157.03,294.84,149.69,226.8,671.32,Single-ply,SBD,M
Boys,124.74+,5,Hunter Fountain,Elysian Fields,149.78,283.5,156.49,204.12,644.1,Single-ply,SBD,M
Boys,124.74+,6,Bailey Booker,Bogata Rivercrest,155.31,272.16,156.49,215.46,644.1,Single-ply,SBD,M
Boys,124.74+,7,Colton Barker,Malakoff,129.18,254.01,131.54,238.14,623.69,Single-ply,SBD,M
Boys,124.74+,8,Michael Williams,Dawson,167.83,272.16,136.08,215.46,623.69,Single-ply,SBD,M
Boys,124.74+,DQ,Zack McFarland,Elkhart,131.27,,,,,Single-ply,SBD,M
Boys,124.74+,DQ,Taylor McBride,Cushing,140.7,,,,,Single-ply,SBD,M
Boys,124.74+,DQ,Brandon Brumbelow,Kerens,131.18,,,,,Single-ply,SBD,M
Boys,,NS,Chase Kirby,Dawson,,,,,,Single-ply,SBD,M
Boys,,NS,Ethan Hoops,Eustace,,,,,,Single-ply,SBD,M
Boys,,NS,Joey Maltos,Buffalo,,,,,,Single-ply,SBD,M
Boys,,NS,David McAlpine,Buffalo,,,,,,Single-ply,SBD,M
Boys,,NS,Cody Henrico,Queen City,,,,,,Single-ply,SBD,M
