Division,WeightClassKg,Place,Name,Team,BodyweightKg,Best3SquatKg,Best3BenchKg,Best3DeadliftKg,TotalKg,Equipment,Event,Sex
Boys,51.71,1,Jose Rodriguez,Athens,51.44,149.69,77.11,147.42,374.21,Single-ply,SBD,M
Boys,51.71,2,Jaime Luna,Palmer,50.8,145.15,58.97,136.08,340.19,Single-ply,SBD,M
Boys,51.71,3,Marcrislin Barksdale,Palestine,51.53,117.93,77.11,120.2,315.25,Single-ply,SBD,M
Boys,51.71,4,Parker Jackson,Blooming Grove,44.36,81.65,45.36,99.79,226.8,Single-ply,SBD,M
Boys,51.71,5,Anton Sanders,Lindale,47.36,81.65,49.9,86.18,217.72,Single-ply,SBD,M
Boys,51.71,DQ,Cody Brown,Lindale,41.73,86.18,,,,Single-ply,SBD,M
Boys,51.71,DQ,Austin Peppers,Rice,51.26,113.4,,,,Single-ply,SBD,M
Boys,55.79,1,Roberto Oropeza,Rice,55.16,136.08,77.11,138.35,351.53,Single-ply,SBD,M
Boys,55.79,2,Gage Giglio,Lindale,54.52,133.81,68.04,140.61,342.46,Single-ply,SBD,M
Boys,55.79,3,Ricardo Rodriguez,Athens,53.98,111.13,77.11,142.88,331.12,Single-ply,SBD,M
Boys,55.79,4,Caleb Terrell,Frankston,54.25,113.4,70.31,136.08,319.78,Single-ply,SBD,M
Boys,55.79,5,Ruben Esquivel,Corsicana,53.52,122.47,58.97,131.54,312.98,Single-ply,SBD,M
Boys,55.79,6,Trey Russell,Eustace,54.98,108.86,70.31,129.27,308.44,Single-ply,SBD,M
Boys,55.79,7,Garrian McCallister,Malakoff,52.53,113.4,56.7,133.81,303.91,Single-ply,SBD,M
Boys,55.79,8,Brandon Hall,Eustace,55.61,117.93,56.7,102.06,276.69,Single-ply,SBD,M
Boys,59.87,1,Codie Pair,Rice,58.6,149.69,102.06,165.56,417.3,Single-ply,SBD,M
Boys,67.13,2,Salvador Perez,Palmer,59.96,145.15,70.31,172.37,387.82,Single-ply,SBD,M
Boys,59.87,3,Max Snodgrass,Blooming Grove,59.06,133.81,81.65,165.56,381.02,Single-ply,SBD,M
Boys,59.87,4,Colt Conway,Mabank,59.78,142.88,72.57,124.74,340.19,Single-ply,SBD,M
Boys,59.87,5,Brooks Conlee,Bullard,57.33,120.2,63.5,154.22,337.93,Single-ply,SBD,M
Boys,59.87,6,Ruben Lopez,Lindale,56.43,127.01,70.31,133.81,331.12,Single-ply,SBD,M
Boys,59.87,7,Zach Holloway,Palestine,58.97,124.74,70.31,136.08,331.12,Single-ply,SBD,M
Boys,59.87,8,Adan Payne,Rice,58.97,115.67,61.23,108.86,285.76,Single-ply,SBD,M
Boys,59.87,9,Jorge Urtega,Eustace,58.97,104.33,65.77,113.4,283.5,Single-ply,SBD,M
Boys,59.87,DQ,Luis Camacho,Athens,56.97,138.35,,,,Single-ply,SBD,M
Boys,67.13,1,Jt Delay,Mabank,65.59,188.24,124.74,163.29,476.27,Single-ply,SBD,M
Boys,67.13,2,Abed Abuhatub,Eustace,65.32,158.76,102.06,167.83,428.64,Single-ply,SBD,M
Boys,67.13,3,Olice Rogers,Kemp,63.41,163.29,92.99,165.56,421.84,Single-ply,SBD,M
Boys,67.13,4,Colton Monroe,Blooming Grove,61.96,140.61,83.91,192.78,417.3,Single-ply,SBD,M
Boys,67.13,5,Preston Amason,Eustace,67.04,149.69,99.79,167.83,417.3,Single-ply,SBD,M
Boys,67.13,6,Karson Street,Malakoff,64.14,151.95,97.52,154.22,403.7,Single-ply,SBD,M
Boys,67.13,7,Daniel Salazar,Athens,65.05,136.08,102.06,163.29,401.43,Single-ply,SBD,M
Boys,67.13,8,Osvaldo Solis,Rice,64.59,165.56,83.91,133.81,383.29,Single-ply,SBD,M
Boys,67.13,9,Tristin LaChapple,Rice,61.6,149.69,95.25,136.08,381.02,Single-ply,SBD,M
Boys,67.13,10,Chase Greenwalt,Bullard,65.59,165.56,70.31,145.15,381.02,Single-ply,SBD,M
Boys,67.13,11,Ben Nicholson,Blooming Grove,65.05,151.95,83.91,142.88,378.75,Single-ply,SBD,M
Boys,67.13,12,Travis Whiteside,Blooming Grove,66.22,136.08,83.91,149.69,369.68,Single-ply,SBD,M
Boys,67.13,13,Jeremy Bennett,Rusk,65.59,127.01,81.65,158.76,367.41,Single-ply,SBD,M
Boys,67.13,14,Felipe Reyes,Malakoff,66.5,127.01,72.57,129.27,328.85,Single-ply,SBD,M
Boys,67.13,15,Cris Fesseden,Kemp,66.68,102.06,83.91,142.88,328.85,Single-ply,SBD,M
Boys,67.13,16,Omar Gonzalez,Malakoff,65.14,113.4,63.5,140.61,317.51,Single-ply,SBD,M
Boys,67.13,17,Cade Emerson,Rusk,65.95,115.67,70.31,129.27,315.25,Single-ply,SBD,M
Boys,67.13,18,Garrett Haley,Kemp,65.41,102.06,72.57,136.08,310.71,Single-ply,SBD,M
Boys,67.13,19,Deon Lewis,Athens,63.14,92.99,79.38,124.74,297.1,Single-ply,SBD,M
Boys,67.13,DQ,Harley Hudspeth,Kemp,67.04,,,,,Single-ply,SBD,M
Boys,67.13,DQ,Wayne Warnike,Kemp,64.41,131.54,,,,Single-ply,SBD,M
Boys,74.84,1,Houston Alexander,Bullard,73.3,192.78,129.27,183.7,505.76,Single-ply,SBD,M
Boys,74.84,2,Trent Bailey,Mabank,73.75,181.44,124.74,188.24,494.42,Single-ply,SBD,M
Boys,74.84,3,Jerrod Lane,Kemp,73.03,183.7,115.67,188.24,487.61,Single-ply,SBD,M
Boys,74.84,4,Austin Skelton,Bullard,70.76,176.9,95.25,204.12,476.27,Single-ply,SBD,M
Boys,74.84,5,Chris Atchley,Rice,74.75,181.44,99.79,188.24,469.47,Single-ply,SBD,M
Boys,74.84,6,Dakota Meurer,Lindale,69.4,179.17,95.25,183.7,458.13,Single-ply,SBD,M
Boys,74.84,7,Cesar Garcia,Malakoff,71.44,188.24,95.25,170.1,453.59,Single-ply,SBD,M
Boys,74.84,8,Jason Burgett,Palmer,74.57,176.9,92.99,181.44,451.32,Single-ply,SBD,M
Boys,74.84,9,Devin Hall,Athens,71.49,156.49,108.86,172.37,437.72,Single-ply,SBD,M
Boys,74.84,10,Christian Ward,Palestine,70.4,165.56,97.52,165.56,428.64,Single-ply,SBD,M
Boys,74.84,11,Jayson Jordan,Rice,73.57,163.29,97.52,163.29,424.11,Single-ply,SBD,M
Boys,74.84,12,Hector Zamarripa,Palmer,68.86,142.88,106.59,170.1,419.57,Single-ply,SBD,M
Boys,74.84,13,Dalton Wassinger,Blooming Grove,71.58,165.56,99.79,147.42,412.77,Single-ply,SBD,M
Boys,74.84,14,Collin Hester,Lindale,74.12,142.88,86.18,181.44,410.5,Single-ply,SBD,M
Boys,74.84,15,Tj Griffin,Lindale,69.85,154.22,90.72,161.03,405.97,Single-ply,SBD,M
Boys,74.84,16,Jeremiah Irons,Lindale,73.94,156.49,74.84,156.49,387.82,Single-ply,SBD,M
Boys,74.84,17,Raheem Miller,Athens,74.3,133.81,92.99,158.76,385.55,Single-ply,SBD,M
Boys,82.1,18,Clayton Wyman,Lindale,75.02,124.74,83.91,154.22,362.87,Single-ply,SBD,M
Boys,74.84,19,Kolton Edwards,Malakoff,70.76,127.01,65.77,138.35,331.12,Single-ply,SBD,M
Boys,74.84,20,Kirkland Terrell,Malakoff,71.85,102.06,79.38,149.69,331.12,Single-ply,SBD,M
Boys,74.84,21,Jacob Neal,Malakoff,68.54,111.13,72.57,138.35,322.05,Single-ply,SBD,M
Boys,74.84,22,Braylon Cable,Malakoff,69.63,104.33,83.91,133.81,322.05,Single-ply,SBD,M
Boys,74.84,23,Erick Garcia,Athens,68.86,95.25,68.04,156.49,319.78,Single-ply,SBD,M
Boys,74.84,24,Kyle Allen,Frankston,67.95,106.59,65.77,129.27,301.64,Single-ply,SBD,M
Boys,74.84,25,Stephen Wolfe,Malakoff,73.35,102.06,65.77,133.81,301.64,Single-ply,SBD,M
Boys,82.1,1,Mitchell Pinion,Kemp,79.38,233.6,136.08,201.85,571.53,Single-ply,SBD,M
Boys,82.1,2,Adam Galza,Lindale,81.19,233.6,120.2,217.72,571.53,Single-ply,SBD,M
Boys,82.1,3,Zack Holladay,Bullard,81.56,219.99,117.93,215.46,553.38,Single-ply,SBD,M
Boys,82.1,4,Trey Acy,Lindale,79.02,219.99,124.74,206.38,551.11,Single-ply,SBD,M
Boys,82.1,5,David Overstreet,Rusk,80.47,190.51,111.13,242.67,544.31,Single-ply,SBD,M
Boys,82.1,6,Marcos Garza,Mabank,81.47,188.24,133.81,190.51,512.56,Single-ply,SBD,M
Boys,82.1,7,Clayton Lane,Mabank,78.65,190.51,131.54,188.24,510.29,Single-ply,SBD,M
Boys,82.1,8,Caleb Williams,Frankston,76.84,167.83,104.33,229.06,501.22,Single-ply,SBD,M
Boys,82.1,9,Dj Cumby,Athens,78.65,183.7,90.72,176.9,451.32,Single-ply,SBD,M
Boys,82.1,10,Dylan Schneider,Mabank,81.65,151.95,122.47,170.1,444.52,Single-ply,SBD,M
Boys,82.1,11,Rocky Greenwalt,Bullard,78.02,179.17,88.45,167.83,435.45,Single-ply,SBD,M
Boys,82.1,12,Lance Kane,Lindale,78.02,165.56,90.72,176.9,433.18,Single-ply,SBD,M
Boys,82.1,13,Albert Martinez,Athens,81.1,151.95,108.86,170.1,430.91,Single-ply,SBD,M
Boys,82.1,14,Ryan Mutina,Corsicana,76.75,142.88,127.01,113.4,383.29,Single-ply,SBD,M
Boys,82.1,15,Luis Alveraz,Rice,78.65,136.08,99.79,145.15,381.02,Single-ply,SBD,M
Boys,82.1,16,Aaron Roberston,Malakoff,77.25,117.93,102.06,129.27,349.27,Single-ply,SBD,M
Boys,82.1,17,Emanual Gonzalez,Malakoff,78.2,131.54,68.04,142.88,342.46,Single-ply,SBD,M
Boys,82.1,18,Gabe Cruces,Malakoff,80.88,115.67,61.23,142.88,319.78,Single-ply,SBD,M
Boys,82.1,19,Marcques Roundtree,Blooming Grove,78.47,117.93,63.5,122.47,303.91,Single-ply,SBD,M
Boys,82.1,20,Jordan Hobbs,Palestine,81.65,102.06,45.36,92.99,240.4,Single-ply,SBD,M
Boys,82.1,DQ,Marcus Dowell,Malakoff,77.84,140.61,,,,Single-ply,SBD,M
Boys,82.1,DQ,Ray Rosales,Rusk,79.02,158.76,113.4,,,Single-ply,SBD,M
Boys,89.81,1,Ben Torres,Rice,88.45,213.19,129.27,195.04,537.51,Single-ply,SBD,M
Boys,89.81,2,Jody Bernal,Rice,87.09,190.51,133.81,208.65,532.97,Single-ply,SBD,M
Boys,89.81,3,Jon Jennings,Kemp,88.45,204.12,113.4,192.78,510.29,Single-ply,SBD,M
Boys,89.81,4,Tate Taylor,Malakoff,82.55,195.04,115.67,185.97,496.68,Single-ply,SBD,M
Boys,89.81,5,James Ruiz,Rusk,89.36,185.97,115.67,188.24,489.88,Single-ply,SBD,M
Boys,89.81,6,Dustin Higgs,Malakoff,85.46,167.83,129.27,172.37,469.47,Single-ply,SBD,M
Boys,89.81,7,Chris Zitco,Mabank,86.82,161.03,120.2,183.7,464.93,Single-ply,SBD,M
Boys,89.81,8,David Havlik,Malakoff,85.82,163.29,115.67,181.44,460.4,Single-ply,SBD,M
Boys,89.81,9,Fabi Molina,Lindale,86.91,179.17,90.72,185.97,455.86,Single-ply,SBD,M
Boys,89.81,10,Jarrett Hall,Corsicana,88,172.37,97.52,181.44,451.32,Single-ply,SBD,M
Boys,89.81,11,Erick Torres,Palmer,85.28,174.63,104.33,142.88,421.84,Single-ply,SBD,M
Boys,89.81,12,Jordan Harris #5,Malakoff,83.46,138.35,92.99,154.22,385.55,Single-ply,SBD,M
Boys,89.81,13,Brett Workman,Frankston,83.91,156.49,79.38,149.69,385.55,Single-ply,SBD,M
Boys,89.81,14,Kobe Brown,Palestine,89.54,145.15,77.11,136.08,358.34,Single-ply,SBD,M
Boys,89.81,15,Tristin Kennedy,Palestine,89.63,124.74,77.11,142.88,344.73,Single-ply,SBD,M
Boys,89.81,16,Jesus Sanchez,Palestine,83.01,136.08,61.23,136.08,333.39,Single-ply,SBD,M
Boys,89.81,17,Logan Crocker,Corsicana,83.01,86.18,61.23,113.4,260.82,Single-ply,SBD,M
Boys,89.81,DQ,Zack Wright,Frankston,86.18,,,,,Single-ply,SBD,M
Boys,89.81,DQ,Ben Dillion,Kemp,89.27,181.44,,,,Single-ply,SBD,M
Boys,89.81,DQ,Randy Mullins,Malakoff,85.18,133.81,,,,Single-ply,SBD,M
Boys,99.79,1,Ragan Henderson,Rice,97.52,235.87,147.42,272.16,655.44,Single-ply,SBD,M
Boys,99.79,2,Matt Wood,Bullard,97.43,249.48,136.08,231.33,616.89,Single-ply,SBD,M
Boys,99.79,3,Dante Marsh,Lindale,93.44,222.26,161.03,217.72,601.01,Single-ply,SBD,M
Boys,99.79,4,Cody Kuykendall,Mabank,97.07,181.44,138.35,181.44,501.22,Single-ply,SBD,M
Boys,99.79,5,Justin Smith,Rice,92.71,185.97,99.79,201.85,487.61,Single-ply,SBD,M
Boys,99.79,6,Dorian Schutt,Bullard,96.62,181.44,115.67,181.44,478.54,Single-ply,SBD,M
Boys,99.79,7,Josh Yarbrough,Lindale,95.71,192.78,97.52,185.97,476.27,Single-ply,SBD,M
Boys,99.79,8,David Guynn,Malakoff,98.52,199.58,90.72,183.7,474,Single-ply,SBD,M
Boys,99.79,9,Brian DeLaCruz,Malakoff,92.4,176.9,99.79,183.7,460.4,Single-ply,SBD,M
Boys,99.79,10,Diego Medina,Malakoff,98.07,172.37,102.06,181.44,455.86,Single-ply,SBD,M
Boys,99.79,11,Landon Wright,Lindale,97.79,170.1,90.72,192.78,453.59,Single-ply,SBD,M
Boys,99.79,12,Jessie Davis,Frankston,91.17,167.83,104.33,167.83,439.98,Single-ply,SBD,M
Boys,99.79,13,Isiah Alvarez,Lindale,98.43,176.9,95.25,163.29,435.45,Single-ply,SBD,M
Boys,99.79,14,Jordan VanOver,Mabank,99.7,163.29,97.52,170.1,430.91,Single-ply,SBD,M
Boys,99.79,15,Zach Hughes,Eustace,91.08,158.76,108.86,161.03,428.64,Single-ply,SBD,M
Boys,99.79,16,Jj Kummer,Frankston,96.71,165.56,81.65,181.44,428.64,Single-ply,SBD,M
Boys,99.79,17,Eduardo Limon,Athens,92.08,149.69,81.65,183.7,415.04,Single-ply,SBD,M
Boys,99.79,18,Lionel Garcia,Eustace,98.25,163.29,95.25,156.49,415.04,Single-ply,SBD,M
Boys,99.79,19,Nelson Ochoa,Malakoff,96.98,151.95,88.45,167.83,408.23,Single-ply,SBD,M
Boys,99.79,20,Matt Rischke,Bullard,94.8,149.69,88.45,154.22,392.36,Single-ply,SBD,M
Boys,99.79,21,Montrell Williams,Malakoff,92.99,149.69,79.38,161.03,390.09,Single-ply,SBD,M
Boys,99.79,22,Donovan Hailey,Corsicana,95.89,151.95,90.72,147.42,390.09,Single-ply,SBD,M
Boys,99.79,23,Corey Rosa,Malakoff,96.07,151.95,88.45,149.69,390.09,Single-ply,SBD,M
Boys,99.79,24,Justin Caldwell,Frankston,95.53,136.08,86.18,149.69,371.95,Single-ply,SBD,M
Boys,109.77,DQ,James Forrest,Kemp,99.88,,,,,Single-ply,SBD,M
Boys,109.77,1,Dylan Searcy,Bullard,103.78,215.46,140.61,249.48,605.55,Single-ply,SBD,M
Boys,109.77,2,Stetson Farrell,Lindale,105.69,238.14,142.88,201.85,582.87,Single-ply,SBD,M
Boys,109.77,3,Justin George,Mabank,102.51,195.04,142.88,165.56,503.49,Single-ply,SBD,M
Boys,109.77,4,Jordan Marragia,Mabank,100.88,204.12,104.33,190.51,498.95,Single-ply,SBD,M
Boys,109.77,5,Billy Tomlin,Bullard,102.33,197.31,104.33,158.76,460.4,Single-ply,SBD,M
Boys,109.77,6,Ridge Smith,Eustace,106.32,183.7,104.33,165.56,453.59,Single-ply,SBD,M
Boys,109.77,7,Patrick Cross,Palestine,105.23,176.9,79.38,181.44,437.72,Single-ply,SBD,M
Boys,109.77,8,Collin Martian,Mabank,101.88,170.1,111.13,136.08,417.3,Single-ply,SBD,M
Boys,109.77,9,Isreal Chavez,Malakoff,103.24,156.49,92.99,149.69,399.16,Single-ply,SBD,M
Boys,109.77,10,Wally Baker,Eustace,103.42,147.42,92.99,133.81,374.21,Single-ply,SBD,M
Boys,109.77,11,Nesto Rodriguez,Corsicana,104.33,136.08,90.72,136.08,362.87,Single-ply,SBD,M
Boys,109.77,12,Jimmy Torres,Corsicana,103.87,151.95,72.57,124.74,349.27,Single-ply,SBD,M
Boys,124.74,1,Cody Parker,Kemp,112.58,272.16,188.24,201.85,662.24,Single-ply,SBD,M
Boys,124.74,2,William Anderson,Palestine,124.28,272.16,149.69,181.44,603.28,Single-ply,SBD,M
Boys,124.74,3,Raul Torres,Palmer,120.38,231.33,129.27,199.58,560.19,Single-ply,SBD,M
Boys,124.74,4,Dj Williams,Lindale,112.85,208.65,122.47,204.12,535.24,Single-ply,SBD,M
Boys,124.74,5,Garrett Lane,Blooming Grove,123.83,165.56,129.27,167.83,462.66,Single-ply,SBD,M
Boys,124.74,DQ,Dean Fletes,Corsicana,113.85,188.24,95.25,,,Single-ply,SBD,M
Boys,124.74,DQ,Colton Moore,Lindale,111.58,149.69,,,,Single-ply,SBD,M
Boys,124.74+,1,Charlie Perry,Palestine,133.81,226.8,181.44,244.94,653.17,Single-ply,SBD,M
Boys,124.74+,2,Michael Stiles,Lindale,127.46,235.87,142.88,222.26,601.01,Single-ply,SBD,M
Boys,124.74+,3,Antonio Romo,Lindale,141.07,226.8,122.47,215.46,564.72,Single-ply,SBD,M
Boys,124.74+,4,Dirk Eberhardt,Bullard,131.54,158.76,104.33,163.29,426.38,Single-ply,SBD,M
Boys,124.74+,5,Manuel Solis,Palestine,131.36,138.35,81.65,138.35,358.34,Single-ply,SBD,M
Boys,124.74+,DQ,Thomas Acol,Malakoff,130.86,226.8,,,,Single-ply,SBD,M
Boys,124.74+,DQ,Thomas Hyde,Eustace,133.72,206.38,,,,Single-ply,SBD,M
Boys,124.74+,DQ,Darren Franklin,Rusk,139.53,199.58,,,,Single-ply,SBD,M
